﻿CVE_ENT,CVE_MUN,desp_gn,desp_semar,desp_sedena
1,1,384,0,784
1,2,384,0,784
1,3,384,0,784
1,4,384,0,784
1,5,384,0,784
1,6,384,0,784
1,7,384,0,784
1,8,384,0,784
1,9,384,0,784
1,10,384,0,784
1,11,384,0,784
2,1,2309,2807,2359
2,2,2309,2807,2359
2,3,2309,2807,2359
2,4,2309,2807,2359
2,5,2309,2807,2359
3,1,931,2083,872
3,2,931,2083,872
3,3,931,2083,872
3,8,931,2083,872
3,9,931,2083,872
4,1,1309,2849,1054
4,2,1309,2849,1054
4,3,1309,2849,1054
4,4,1309,2849,1054
4,5,1309,2849,1054
4,6,1309,2849,1054
4,7,1309,2849,1054
4,8,1309,2849,1054
4,9,1309,2849,1054
4,10,1309,2849,1054
4,11,1309,2849,1054
7,1,3353,2867,3815
7,2,3353,2867,3815
7,3,3353,2867,3815
7,4,3353,2867,3815
7,5,3353,2867,3815
7,6,3353,2867,3815
7,7,3353,2867,3815
7,8,3353,2867,3815
7,9,3353,2867,3815
7,10,3353,2867,3815
7,11,3353,2867,3815
7,12,3353,2867,3815
7,13,3353,2867,3815
7,14,3353,2867,3815
7,15,3353,2867,3815
7,16,3353,2867,3815
7,17,3353,2867,3815
7,18,3353,2867,3815
7,19,3353,2867,3815
7,20,3353,2867,3815
7,21,3353,2867,3815
7,22,3353,2867,3815
7,23,3353,2867,3815
7,24,3353,2867,3815
7,25,3353,2867,3815
7,26,3353,2867,3815
7,27,3353,2867,3815
7,28,3353,2867,3815
7,29,3353,2867,3815
7,30,3353,2867,3815
7,31,3353,2867,3815
7,32,3353,2867,3815
7,33,3353,2867,3815
7,34,3353,2867,3815
7,35,3353,2867,3815
7,36,3353,2867,3815
7,37,3353,2867,3815
7,38,3353,2867,3815
7,39,3353,2867,3815
7,40,3353,2867,3815
7,41,3353,2867,3815
7,42,3353,2867,3815
7,43,3353,2867,3815
7,44,3353,2867,3815
7,45,3353,2867,3815
7,46,3353,2867,3815
7,47,3353,2867,3815
7,48,3353,2867,3815
7,49,3353,2867,3815
7,50,3353,2867,3815
7,51,3353,2867,3815
7,52,3353,2867,3815
7,53,3353,2867,3815
7,54,3353,2867,3815
7,55,3353,2867,3815
7,56,3353,2867,3815
7,57,3353,2867,3815
7,58,3353,2867,3815
7,59,3353,2867,3815
7,60,3353,2867,3815
7,61,3353,2867,3815
7,62,3353,2867,3815
7,63,3353,2867,3815
7,64,3353,2867,3815
7,65,3353,2867,3815
7,66,3353,2867,3815
7,67,3353,2867,3815
7,68,3353,2867,3815
7,69,3353,2867,3815
7,70,3353,2867,3815
7,71,3353,2867,3815
7,72,3353,2867,3815
7,73,3353,2867,3815
7,74,3353,2867,3815
7,75,3353,2867,3815
7,76,3353,2867,3815
7,77,3353,2867,3815
7,78,3353,2867,3815
7,79,3353,2867,3815
7,80,3353,2867,3815
7,81,3353,2867,3815
7,82,3353,2867,3815
7,83,3353,2867,3815
7,84,3353,2867,3815
7,85,3353,2867,3815
7,86,3353,2867,3815
7,87,3353,2867,3815
7,88,3353,2867,3815
7,89,3353,2867,3815
7,90,3353,2867,3815
7,91,3353,2867,3815
7,92,3353,2867,3815
7,93,3353,2867,3815
7,94,3353,2867,3815
7,96,3353,2867,3815
7,97,3353,2867,3815
7,98,3353,2867,3815
7,99,3353,2867,3815
7,100,3353,2867,3815
7,101,3353,2867,3815
7,102,3353,2867,3815
7,103,3353,2867,3815
7,104,3353,2867,3815
7,105,3353,2867,3815
7,106,3353,2867,3815
7,107,3353,2867,3815
7,108,3353,2867,3815
7,109,3353,2867,3815
7,110,3353,2867,3815
7,111,3353,2867,3815
7,112,3353,2867,3815
7,113,3353,2867,3815
7,114,3353,2867,3815
7,115,3353,2867,3815
7,116,3353,2867,3815
7,117,3353,2867,3815
7,118,3353,2867,3815
7,119,3353,2867,3815
8,1,2493,0,2534
8,2,2493,0,2534
8,3,2493,0,2534
8,4,2493,0,2534
8,5,2493,0,2534
8,6,2493,0,2534
8,7,2493,0,2534
8,8,2493,0,2534
8,9,2493,0,2534
8,10,2493,0,2534
8,11,2493,0,2534
8,12,2493,0,2534
8,13,2493,0,2534
8,14,2493,0,2534
8,15,2493,0,2534
8,16,2493,0,2534
8,17,2493,0,2534
8,18,2493,0,2534
8,19,2493,0,2534
8,20,2493,0,2534
8,21,2493,0,2534
8,22,2493,0,2534
8,23,2493,0,2534
8,24,2493,0,2534
8,25,2493,0,2534
8,26,2493,0,2534
8,27,2493,0,2534
8,28,2493,0,2534
8,29,2493,0,2534
8,30,2493,0,2534
8,31,2493,0,2534
8,32,2493,0,2534
8,33,2493,0,2534
8,34,2493,0,2534
8,35,2493,0,2534
8,36,2493,0,2534
8,37,2493,0,2534
8,38,2493,0,2534
8,39,2493,0,2534
8,40,2493,0,2534
8,41,2493,0,2534
8,42,2493,0,2534
8,43,2493,0,2534
8,44,2493,0,2534
8,45,2493,0,2534
8,46,2493,0,2534
8,47,2493,0,2534
8,48,2493,0,2534
8,49,2493,0,2534
8,50,2493,0,2534
8,51,2493,0,2534
8,52,2493,0,2534
8,53,2493,0,2534
8,54,2493,0,2534
8,55,2493,0,2534
8,56,2493,0,2534
8,57,2493,0,2534
8,58,2493,0,2534
8,59,2493,0,2534
8,60,2493,0,2534
8,61,2493,0,2534
8,62,2493,0,2534
8,63,2493,0,2534
8,64,2493,0,2534
8,65,2493,0,2534
8,66,2493,0,2534
8,67,2493,0,2534
5,1,2068,0,1907
5,2,2068,0,1907
5,3,2068,0,1907
5,4,2068,0,1907
5,5,2068,0,1907
5,6,2068,0,1907
5,7,2068,0,1907
5,8,2068,0,1907
5,9,2068,0,1907
5,10,2068,0,1907
5,11,2068,0,1907
5,12,2068,0,1907
5,13,2068,0,1907
5,14,2068,0,1907
5,15,2068,0,1907
5,16,2068,0,1907
5,17,2068,0,1907
5,18,2068,0,1907
5,19,2068,0,1907
5,20,2068,0,1907
5,21,2068,0,1907
5,22,2068,0,1907
5,23,2068,0,1907
5,24,2068,0,1907
5,25,2068,0,1907
5,26,2068,0,1907
5,27,2068,0,1907
5,28,2068,0,1907
5,29,2068,0,1907
5,30,2068,0,1907
5,31,2068,0,1907
5,32,2068,0,1907
5,33,2068,0,1907
5,34,2068,0,1907
5,35,2068,0,1907
5,36,2068,0,1907
5,37,2068,0,1907
5,38,2068,0,1907
6,1,894,3063,1168
6,2,894,3063,1168
6,3,894,3063,1168
6,4,894,3063,1168
6,5,894,3063,1168
6,6,894,3063,1168
6,7,894,3063,1168
6,8,894,3063,1168
6,9,894,3063,1168
6,10,894,3063,1168
9,17,11065,15933,3730
9,16,11065,15933,3730
9,15,11065,15933,3730
9,14,11065,15933,3730
9,13,11065,15933,3730
9,12,11065,15933,3730
9,11,11065,15933,3730
9,10,11065,15933,3730
9,9,11065,15933,3730
9,8,11065,15933,3730
9,7,11065,15933,3730
9,6,11065,15933,3730
9,5,11065,15933,3730
9,4,11065,15933,3730
9,3,11065,15933,3730
9,2,11065,15933,3730
10,1,1311,0,1393
10,2,1311,0,1393
10,3,1311,0,1393
10,4,1311,0,1393
10,5,1311,0,1393
10,6,1311,0,1393
10,7,1311,0,1393
10,8,1311,0,1393
10,9,1311,0,1393
10,10,1311,0,1393
10,11,1311,0,1393
10,12,1311,0,1393
10,13,1311,0,1393
10,14,1311,0,1393
10,15,1311,0,1393
10,16,1311,0,1393
10,17,1311,0,1393
10,18,1311,0,1393
10,19,1311,0,1393
10,20,1311,0,1393
10,21,1311,0,1393
10,22,1311,0,1393
10,23,1311,0,1393
10,24,1311,0,1393
10,25,1311,0,1393
10,26,1311,0,1393
10,27,1311,0,1393
10,28,1311,0,1393
10,29,1311,0,1393
10,30,1311,0,1393
10,31,1311,0,1393
10,32,1311,0,1393
10,33,1311,0,1393
10,34,1311,0,1393
10,35,1311,0,1393
10,36,1311,0,1393
10,37,1311,0,1393
10,38,1311,0,1393
10,39,1311,0,1393
11,1,7089,0,3329
11,2,7089,0,3329
11,3,7089,0,3329
11,4,7089,0,3329
11,5,7089,0,3329
11,6,7089,0,3329
11,7,7089,0,3329
11,8,7089,0,3329
11,9,7089,0,3329
11,10,7089,0,3329
11,11,7089,0,3329
11,12,7089,0,3329
11,13,7089,0,3329
11,14,7089,0,3329
11,15,7089,0,3329
11,16,7089,0,3329
11,17,7089,0,3329
11,18,7089,0,3329
11,19,7089,0,3329
11,20,7089,0,3329
11,21,7089,0,3329
11,22,7089,0,3329
11,23,7089,0,3329
11,24,7089,0,3329
11,25,7089,0,3329
11,26,7089,0,3329
11,27,7089,0,3329
11,28,7089,0,3329
11,29,7089,0,3329
11,30,7089,0,3329
11,31,7089,0,3329
11,32,7089,0,3329
11,33,7089,0,3329
11,34,7089,0,3329
11,35,7089,0,3329
11,36,7089,0,3329
11,37,7089,0,3329
11,38,7089,0,3329
11,39,7089,0,3329
11,40,7089,0,3329
11,41,7089,0,3329
11,42,7089,0,3329
11,43,7089,0,3329
11,44,7089,0,3329
11,45,7089,0,3329
11,46,7089,0,3329
12,1,4238,2846,3260
12,2,4238,2846,3260
12,3,4238,2846,3260
12,4,4238,2846,3260
12,5,4238,2846,3260
12,6,4238,2846,3260
12,7,4238,2846,3260
12,8,4238,2846,3260
12,9,4238,2846,3260
12,10,4238,2846,3260
12,11,4238,2846,3260
12,12,4238,2846,3260
12,13,4238,2846,3260
12,14,4238,2846,3260
12,15,4238,2846,3260
12,16,4238,2846,3260
12,17,4238,2846,3260
12,18,4238,2846,3260
12,19,4238,2846,3260
12,20,4238,2846,3260
12,21,4238,2846,3260
12,22,4238,2846,3260
12,23,4238,2846,3260
12,24,4238,2846,3260
12,25,4238,2846,3260
12,26,4238,2846,3260
12,27,4238,2846,3260
12,28,4238,2846,3260
12,29,4238,2846,3260
12,30,4238,2846,3260
12,31,4238,2846,3260
12,32,4238,2846,3260
12,33,4238,2846,3260
12,34,4238,2846,3260
12,35,4238,2846,3260
12,36,4238,2846,3260
12,37,4238,2846,3260
12,38,4238,2846,3260
12,39,4238,2846,3260
12,40,4238,2846,3260
12,41,4238,2846,3260
12,42,4238,2846,3260
12,43,4238,2846,3260
12,44,4238,2846,3260
12,45,4238,2846,3260
12,46,4238,2846,3260
12,47,4238,2846,3260
12,48,4238,2846,3260
12,49,4238,2846,3260
12,50,4238,2846,3260
12,51,4238,2846,3260
12,52,4238,2846,3260
12,53,4238,2846,3260
12,54,4238,2846,3260
12,55,4238,2846,3260
12,56,4238,2846,3260
12,57,4238,2846,3260
12,58,4238,2846,3260
12,59,4238,2846,3260
12,60,4238,2846,3260
12,61,4238,2846,3260
12,62,4238,2846,3260
12,63,4238,2846,3260
12,64,4238,2846,3260
12,65,4238,2846,3260
12,66,4238,2846,3260
12,67,4238,2846,3260
12,68,4238,2846,3260
12,69,4238,2846,3260
12,70,4238,2846,3260
12,71,4238,2846,3260
12,72,4238,2846,3260
12,73,4238,2846,3260
12,74,4238,2846,3260
12,75,4238,2846,3260
12,76,4238,2846,3260
12,77,4238,2846,3260
12,78,4238,2846,3260
12,79,4238,2846,3260
12,80,4238,2846,3260
12,81,4238,2846,3260
13,1,1886,0,1908
13,2,1886,0,1908
13,3,1886,0,1908
13,4,1886,0,1908
13,5,1886,0,1908
13,6,1886,0,1908
13,7,1886,0,1908
13,8,1886,0,1908
13,9,1886,0,1908
13,10,1886,0,1908
13,11,1886,0,1908
13,12,1886,0,1908
13,13,1886,0,1908
13,14,1886,0,1908
13,15,1886,0,1908
13,16,1886,0,1908
13,17,1886,0,1908
13,18,1886,0,1908
13,19,1886,0,1908
13,20,1886,0,1908
13,21,1886,0,1908
13,22,1886,0,1908
13,23,1886,0,1908
13,24,1886,0,1908
13,25,1886,0,1908
13,26,1886,0,1908
13,27,1886,0,1908
13,28,1886,0,1908
13,29,1886,0,1908
13,30,1886,0,1908
13,31,1886,0,1908
13,32,1886,0,1908
13,33,1886,0,1908
13,34,1886,0,1908
13,35,1886,0,1908
13,36,1886,0,1908
13,37,1886,0,1908
13,38,1886,0,1908
13,39,1886,0,1908
13,40,1886,0,1908
13,41,1886,0,1908
13,42,1886,0,1908
13,43,1886,0,1908
13,44,1886,0,1908
13,45,1886,0,1908
13,46,1886,0,1908
13,47,1886,0,1908
13,48,1886,0,1908
13,49,1886,0,1908
13,50,1886,0,1908
13,51,1886,0,1908
13,52,1886,0,1908
13,53,1886,0,1908
13,54,1886,0,1908
13,55,1886,0,1908
13,56,1886,0,1908
13,57,1886,0,1908
13,58,1886,0,1908
13,59,1886,0,1908
13,60,1886,0,1908
13,61,1886,0,1908
13,62,1886,0,1908
13,63,1886,0,1908
13,64,1886,0,1908
13,65,1886,0,1908
13,66,1886,0,1908
13,67,1886,0,1908
13,68,1886,0,1908
13,69,1886,0,1908
13,70,1886,0,1908
13,71,1886,0,1908
13,72,1886,0,1908
13,73,1886,0,1908
13,74,1886,0,1908
13,75,1886,0,1908
13,76,1886,0,1908
13,77,1886,0,1908
13,78,1886,0,1908
13,79,1886,0,1908
13,80,1886,0,1908
13,81,1886,0,1908
13,82,1886,0,1908
13,83,1886,0,1908
13,84,1886,0,1908
14,1,5596,1121,2543
14,2,5596,1121,2543
14,3,5596,1121,2543
14,4,5596,1121,2543
14,5,5596,1121,2543
14,6,5596,1121,2543
14,7,5596,1121,2543
14,8,5596,1121,2543
14,9,5596,1121,2543
14,10,5596,1121,2543
14,11,5596,1121,2543
14,12,5596,1121,2543
14,13,5596,1121,2543
14,14,5596,1121,2543
14,15,5596,1121,2543
14,16,5596,1121,2543
14,17,5596,1121,2543
14,18,5596,1121,2543
14,19,5596,1121,2543
14,20,5596,1121,2543
14,21,5596,1121,2543
14,22,5596,1121,2543
14,23,5596,1121,2543
14,24,5596,1121,2543
14,25,5596,1121,2543
14,26,5596,1121,2543
14,27,5596,1121,2543
14,28,5596,1121,2543
14,29,5596,1121,2543
14,30,5596,1121,2543
14,31,5596,1121,2543
14,32,5596,1121,2543
14,33,5596,1121,2543
14,34,5596,1121,2543
14,35,5596,1121,2543
14,36,5596,1121,2543
14,37,5596,1121,2543
14,38,5596,1121,2543
14,39,5596,1121,2543
14,40,5596,1121,2543
14,41,5596,1121,2543
14,42,5596,1121,2543
14,43,5596,1121,2543
14,44,5596,1121,2543
14,45,5596,1121,2543
14,46,5596,1121,2543
14,47,5596,1121,2543
14,48,5596,1121,2543
14,49,5596,1121,2543
14,50,5596,1121,2543
14,51,5596,1121,2543
14,52,5596,1121,2543
14,53,5596,1121,2543
14,54,5596,1121,2543
14,55,5596,1121,2543
14,56,5596,1121,2543
14,57,5596,1121,2543
14,58,5596,1121,2543
14,59,5596,1121,2543
14,60,5596,1121,2543
14,61,5596,1121,2543
14,62,5596,1121,2543
14,63,5596,1121,2543
14,64,5596,1121,2543
14,65,5596,1121,2543
14,66,5596,1121,2543
14,67,5596,1121,2543
14,68,5596,1121,2543
14,69,5596,1121,2543
14,70,5596,1121,2543
14,71,5596,1121,2543
14,72,5596,1121,2543
14,73,5596,1121,2543
14,74,5596,1121,2543
14,75,5596,1121,2543
14,76,5596,1121,2543
14,77,5596,1121,2543
14,78,5596,1121,2543
14,79,5596,1121,2543
14,80,5596,1121,2543
14,81,5596,1121,2543
14,82,5596,1121,2543
14,83,5596,1121,2543
14,84,5596,1121,2543
14,85,5596,1121,2543
14,86,5596,1121,2543
14,87,5596,1121,2543
14,88,5596,1121,2543
14,89,5596,1121,2543
14,90,5596,1121,2543
14,91,5596,1121,2543
14,92,5596,1121,2543
14,93,5596,1121,2543
14,94,5596,1121,2543
14,95,5596,1121,2543
14,96,5596,1121,2543
14,97,5596,1121,2543
14,98,5596,1121,2543
14,99,5596,1121,2543
14,100,5596,1121,2543
14,101,5596,1121,2543
14,102,5596,1121,2543
14,103,5596,1121,2543
14,104,5596,1121,2543
14,105,5596,1121,2543
14,106,5596,1121,2543
14,107,5596,1121,2543
14,108,5596,1121,2543
14,109,5596,1121,2543
14,110,5596,1121,2543
14,111,5596,1121,2543
14,112,5596,1121,2543
14,113,5596,1121,2543
14,114,5596,1121,2543
14,115,5596,1121,2543
14,116,5596,1121,2543
14,117,5596,1121,2543
14,118,5596,1121,2543
14,119,5596,1121,2543
14,120,5596,1121,2543
14,121,5596,1121,2543
14,122,5596,1121,2543
14,123,5596,1121,2543
14,124,5596,1121,2543
14,125,5596,1121,2543
15,1,12298,0,2100
15,2,12298,0,2100
15,3,12298,0,2100
15,4,12298,0,2100
15,5,12298,0,2100
15,6,12298,0,2100
15,7,12298,0,2100
15,8,12298,0,2100
15,9,12298,0,2100
15,10,12298,0,2100
15,11,12298,0,2100
15,12,12298,0,2100
15,13,12298,0,2100
15,14,12298,0,2100
15,15,12298,0,2100
15,16,12298,0,2100
15,17,12298,0,2100
15,18,12298,0,2100
15,19,12298,0,2100
15,20,12298,0,2100
15,21,12298,0,2100
15,22,12298,0,2100
15,23,12298,0,2100
15,24,12298,0,2100
15,25,12298,0,2100
15,26,12298,0,2100
15,27,12298,0,2100
15,28,12298,0,2100
15,29,12298,0,2100
15,30,12298,0,2100
15,31,12298,0,2100
15,32,12298,0,2100
15,33,12298,0,2100
15,34,12298,0,2100
15,35,12298,0,2100
15,36,12298,0,2100
15,37,12298,0,2100
15,38,12298,0,2100
15,39,12298,0,2100
15,40,12298,0,2100
15,41,12298,0,2100
15,42,12298,0,2100
15,43,12298,0,2100
15,44,12298,0,2100
15,45,12298,0,2100
15,46,12298,0,2100
15,47,12298,0,2100
15,48,12298,0,2100
15,49,12298,0,2100
15,50,12298,0,2100
15,51,12298,0,2100
15,52,12298,0,2100
15,53,12298,0,2100
15,54,12298,0,2100
15,55,12298,0,2100
15,56,12298,0,2100
15,57,12298,0,2100
15,58,12298,0,2100
15,59,12298,0,2100
15,60,12298,0,2100
15,61,12298,0,2100
15,62,12298,0,2100
15,63,12298,0,2100
15,64,12298,0,2100
15,65,12298,0,2100
15,66,12298,0,2100
15,67,12298,0,2100
15,68,12298,0,2100
15,69,12298,0,2100
15,70,12298,0,2100
15,71,12298,0,2100
15,72,12298,0,2100
15,73,12298,0,2100
15,74,12298,0,2100
15,75,12298,0,2100
15,76,12298,0,2100
15,77,12298,0,2100
15,78,12298,0,2100
15,79,12298,0,2100
15,80,12298,0,2100
15,81,12298,0,2100
15,82,12298,0,2100
15,83,12298,0,2100
15,84,12298,0,2100
15,85,12298,0,2100
15,86,12298,0,2100
15,87,12298,0,2100
15,88,12298,0,2100
15,89,12298,0,2100
15,90,12298,0,2100
15,91,12298,0,2100
15,92,12298,0,2100
15,93,12298,0,2100
15,94,12298,0,2100
15,95,12298,0,2100
15,96,12298,0,2100
15,97,12298,0,2100
15,98,12298,0,2100
15,99,12298,0,2100
15,100,12298,0,2100
15,101,12298,0,2100
15,102,12298,0,2100
15,103,12298,0,2100
15,104,12298,0,2100
15,105,12298,0,2100
15,106,12298,0,2100
15,107,12298,0,2100
15,108,12298,0,2100
15,109,12298,0,2100
15,110,12298,0,2100
15,111,12298,0,2100
15,112,12298,0,2100
15,113,12298,0,2100
15,114,12298,0,2100
15,115,12298,0,2100
15,116,12298,0,2100
15,117,12298,0,2100
15,118,12298,0,2100
15,119,12298,0,2100
15,120,12298,0,2100
15,121,12298,0,2100
15,122,12298,0,2100
15,123,12298,0,2100
15,124,12298,0,2100
15,125,12298,0,2100
16,1,5013,1963,1517
16,2,5013,1963,1517
16,3,5013,1963,1517
16,4,5013,1963,1517
16,5,5013,1963,1517
16,6,5013,1963,1517
16,7,5013,1963,1517
16,8,5013,1963,1517
16,9,5013,1963,1517
16,10,5013,1963,1517
16,11,5013,1963,1517
16,12,5013,1963,1517
16,13,5013,1963,1517
16,14,5013,1963,1517
16,15,5013,1963,1517
16,16,5013,1963,1517
16,17,5013,1963,1517
16,18,5013,1963,1517
16,19,5013,1963,1517
16,20,5013,1963,1517
16,21,5013,1963,1517
16,22,5013,1963,1517
16,23,5013,1963,1517
16,24,5013,1963,1517
16,25,5013,1963,1517
16,26,5013,1963,1517
16,27,5013,1963,1517
16,28,5013,1963,1517
16,29,5013,1963,1517
16,30,5013,1963,1517
16,31,5013,1963,1517
16,32,5013,1963,1517
16,33,5013,1963,1517
16,34,5013,1963,1517
16,35,5013,1963,1517
16,36,5013,1963,1517
16,37,5013,1963,1517
16,38,5013,1963,1517
16,39,5013,1963,1517
16,40,5013,1963,1517
16,41,5013,1963,1517
16,42,5013,1963,1517
16,43,5013,1963,1517
16,44,5013,1963,1517
16,45,5013,1963,1517
16,46,5013,1963,1517
16,47,5013,1963,1517
16,48,5013,1963,1517
16,49,5013,1963,1517
16,50,5013,1963,1517
16,51,5013,1963,1517
16,52,5013,1963,1517
16,53,5013,1963,1517
16,54,5013,1963,1517
16,55,5013,1963,1517
16,56,5013,1963,1517
16,57,5013,1963,1517
16,58,5013,1963,1517
16,59,5013,1963,1517
16,60,5013,1963,1517
16,61,5013,1963,1517
16,62,5013,1963,1517
16,63,5013,1963,1517
16,64,5013,1963,1517
16,65,5013,1963,1517
16,66,5013,1963,1517
16,67,5013,1963,1517
16,68,5013,1963,1517
16,69,5013,1963,1517
16,70,5013,1963,1517
16,71,5013,1963,1517
16,72,5013,1963,1517
16,73,5013,1963,1517
16,74,5013,1963,1517
16,75,5013,1963,1517
16,76,5013,1963,1517
16,77,5013,1963,1517
16,78,5013,1963,1517
16,79,5013,1963,1517
16,80,5013,1963,1517
16,81,5013,1963,1517
16,82,5013,1963,1517
16,83,5013,1963,1517
16,84,5013,1963,1517
16,85,5013,1963,1517
16,86,5013,1963,1517
16,87,5013,1963,1517
16,88,5013,1963,1517
16,89,5013,1963,1517
16,90,5013,1963,1517
16,91,5013,1963,1517
16,92,5013,1963,1517
16,93,5013,1963,1517
16,94,5013,1963,1517
16,95,5013,1963,1517
16,96,5013,1963,1517
16,97,5013,1963,1517
16,98,5013,1963,1517
16,99,5013,1963,1517
16,100,5013,1963,1517
16,101,5013,1963,1517
16,102,5013,1963,1517
16,103,5013,1963,1517
16,104,5013,1963,1517
16,105,5013,1963,1517
16,106,5013,1963,1517
16,107,5013,1963,1517
16,108,5013,1963,1517
16,109,5013,1963,1517
16,110,5013,1963,1517
16,111,5013,1963,1517
16,112,5013,1963,1517
16,113,5013,1963,1517
17,1,1286,0,1033
17,2,1286,0,1033
17,3,1286,0,1033
17,4,1286,0,1033
17,5,1286,0,1033
17,6,1286,0,1033
17,7,1286,0,1033
17,8,1286,0,1033
17,9,1286,0,1033
17,10,1286,0,1033
17,11,1286,0,1033
17,12,1286,0,1033
17,13,1286,0,1033
17,14,1286,0,1033
17,15,1286,0,1033
17,16,1286,0,1033
17,17,1286,0,1033
17,18,1286,0,1033
17,19,1286,0,1033
17,20,1286,0,1033
17,21,1286,0,1033
17,22,1286,0,1033
17,23,1286,0,1033
17,24,1286,0,1033
17,25,1286,0,1033
17,26,1286,0,1033
17,27,1286,0,1033
17,28,1286,0,1033
17,29,1286,0,1033
17,30,1286,0,1033
17,31,1286,0,1033
17,32,1286,0,1033
17,33,1286,0,1033
18,1,985,1003,713
18,2,985,1003,713
18,3,985,1003,713
18,4,985,1003,713
18,5,985,1003,713
18,6,985,1003,713
18,7,985,1003,713
18,8,985,1003,713
18,9,985,1003,713
18,10,985,1003,713
18,11,985,1003,713
18,12,985,1003,713
18,13,985,1003,713
18,14,985,1003,713
18,15,985,1003,713
18,16,985,1003,713
18,17,985,1003,713
18,18,985,1003,713
18,19,985,1003,713
18,20,985,1003,713
19,1,2374,0,1488
19,2,2374,0,1488
19,3,2374,0,1488
19,4,2374,0,1488
19,5,2374,0,1488
19,6,2374,0,1488
19,7,2374,0,1488
19,8,2374,0,1488
19,9,2374,0,1488
19,10,2374,0,1488
19,11,2374,0,1488
19,12,2374,0,1488
19,13,2374,0,1488
19,14,2374,0,1488
19,15,2374,0,1488
19,16,2374,0,1488
19,17,2374,0,1488
19,18,2374,0,1488
19,19,2374,0,1488
19,20,2374,0,1488
19,21,2374,0,1488
19,22,2374,0,1488
19,23,2374,0,1488
19,24,2374,0,1488
19,25,2374,0,1488
19,26,2374,0,1488
19,27,2374,0,1488
19,28,2374,0,1488
19,29,2374,0,1488
19,30,2374,0,1488
19,31,2374,0,1488
19,32,2374,0,1488
19,33,2374,0,1488
19,34,2374,0,1488
19,35,2374,0,1488
19,36,2374,0,1488
19,37,2374,0,1488
19,38,2374,0,1488
19,39,2374,0,1488
19,40,2374,0,1488
19,41,2374,0,1488
19,42,2374,0,1488
19,43,2374,0,1488
19,44,2374,0,1488
19,45,2374,0,1488
19,46,2374,0,1488
19,47,2374,0,1488
19,48,2374,0,1488
19,49,2374,0,1488
19,50,2374,0,1488
19,51,2374,0,1488
20,1,4659,2912,3218
20,2,4659,2912,3218
20,3,4659,2912,3218
20,4,4659,2912,3218
20,5,4659,2912,3218
20,6,4659,2912,3218
20,7,4659,2912,3218
20,8,4659,2912,3218
20,9,4659,2912,3218
20,10,4659,2912,3218
20,11,4659,2912,3218
20,12,4659,2912,3218
20,13,4659,2912,3218
20,14,4659,2912,3218
20,15,4659,2912,3218
20,16,4659,2912,3218
20,17,4659,2912,3218
20,18,4659,2912,3218
20,19,4659,2912,3218
20,20,4659,2912,3218
20,21,4659,2912,3218
20,22,4659,2912,3218
20,23,4659,2912,3218
20,24,4659,2912,3218
20,25,4659,2912,3218
20,26,4659,2912,3218
20,27,4659,2912,3218
20,28,4659,2912,3218
20,29,4659,2912,3218
20,30,4659,2912,3218
20,31,4659,2912,3218
20,32,4659,2912,3218
20,33,4659,2912,3218
20,34,4659,2912,3218
20,35,4659,2912,3218
20,36,4659,2912,3218
20,37,4659,2912,3218
20,38,4659,2912,3218
20,39,4659,2912,3218
20,40,4659,2912,3218
20,41,4659,2912,3218
20,42,4659,2912,3218
20,43,4659,2912,3218
20,44,4659,2912,3218
20,45,4659,2912,3218
20,46,4659,2912,3218
20,47,4659,2912,3218
20,48,4659,2912,3218
20,49,4659,2912,3218
20,50,4659,2912,3218
20,51,4659,2912,3218
20,52,4659,2912,3218
20,53,4659,2912,3218
20,54,4659,2912,3218
20,55,4659,2912,3218
20,56,4659,2912,3218
20,57,4659,2912,3218
20,58,4659,2912,3218
20,59,4659,2912,3218
20,60,4659,2912,3218
20,61,4659,2912,3218
20,62,4659,2912,3218
20,63,4659,2912,3218
20,64,4659,2912,3218
20,65,4659,2912,3218
20,66,4659,2912,3218
20,67,4659,2912,3218
20,68,4659,2912,3218
20,69,4659,2912,3218
20,70,4659,2912,3218
20,71,4659,2912,3218
20,72,4659,2912,3218
20,73,4659,2912,3218
20,74,4659,2912,3218
20,75,4659,2912,3218
20,76,4659,2912,3218
20,77,4659,2912,3218
20,78,4659,2912,3218
20,79,4659,2912,3218
20,80,4659,2912,3218
20,81,4659,2912,3218
20,82,4659,2912,3218
20,83,4659,2912,3218
20,84,4659,2912,3218
20,85,4659,2912,3218
20,86,4659,2912,3218
20,87,4659,2912,3218
20,88,4659,2912,3218
20,89,4659,2912,3218
20,90,4659,2912,3218
20,91,4659,2912,3218
20,92,4659,2912,3218
20,93,4659,2912,3218
20,94,4659,2912,3218
20,95,4659,2912,3218
20,96,4659,2912,3218
20,97,4659,2912,3218
20,98,4659,2912,3218
20,99,4659,2912,3218
20,100,4659,2912,3218
20,101,4659,2912,3218
20,102,4659,2912,3218
20,103,4659,2912,3218
20,104,4659,2912,3218
20,105,4659,2912,3218
20,106,4659,2912,3218
20,107,4659,2912,3218
20,108,4659,2912,3218
20,109,4659,2912,3218
20,110,4659,2912,3218
20,111,4659,2912,3218
20,112,4659,2912,3218
20,113,4659,2912,3218
20,114,4659,2912,3218
20,115,4659,2912,3218
20,116,4659,2912,3218
20,117,4659,2912,3218
20,118,4659,2912,3218
20,119,4659,2912,3218
20,120,4659,2912,3218
20,121,4659,2912,3218
20,122,4659,2912,3218
20,123,4659,2912,3218
20,124,4659,2912,3218
20,125,4659,2912,3218
20,126,4659,2912,3218
20,127,4659,2912,3218
20,128,4659,2912,3218
20,129,4659,2912,3218
20,130,4659,2912,3218
20,131,4659,2912,3218
20,132,4659,2912,3218
20,133,4659,2912,3218
20,134,4659,2912,3218
20,135,4659,2912,3218
20,136,4659,2912,3218
20,137,4659,2912,3218
20,138,4659,2912,3218
20,139,4659,2912,3218
20,140,4659,2912,3218
20,141,4659,2912,3218
20,142,4659,2912,3218
20,143,4659,2912,3218
20,144,4659,2912,3218
20,145,4659,2912,3218
20,146,4659,2912,3218
20,147,4659,2912,3218
20,148,4659,2912,3218
20,149,4659,2912,3218
20,150,4659,2912,3218
20,151,4659,2912,3218
20,152,4659,2912,3218
20,153,4659,2912,3218
20,154,4659,2912,3218
20,155,4659,2912,3218
20,156,4659,2912,3218
20,157,4659,2912,3218
20,158,4659,2912,3218
20,159,4659,2912,3218
20,160,4659,2912,3218
20,161,4659,2912,3218
20,162,4659,2912,3218
20,163,4659,2912,3218
20,164,4659,2912,3218
20,165,4659,2912,3218
20,166,4659,2912,3218
20,167,4659,2912,3218
20,168,4659,2912,3218
20,169,4659,2912,3218
20,170,4659,2912,3218
20,171,4659,2912,3218
20,172,4659,2912,3218
20,173,4659,2912,3218
20,174,4659,2912,3218
20,175,4659,2912,3218
20,176,4659,2912,3218
20,177,4659,2912,3218
20,178,4659,2912,3218
20,179,4659,2912,3218
20,180,4659,2912,3218
20,181,4659,2912,3218
20,182,4659,2912,3218
20,183,4659,2912,3218
20,184,4659,2912,3218
20,185,4659,2912,3218
20,186,4659,2912,3218
20,187,4659,2912,3218
20,188,4659,2912,3218
20,189,4659,2912,3218
20,190,4659,2912,3218
20,191,4659,2912,3218
20,192,4659,2912,3218
20,193,4659,2912,3218
20,194,4659,2912,3218
20,195,4659,2912,3218
20,196,4659,2912,3218
20,197,4659,2912,3218
20,198,4659,2912,3218
20,199,4659,2912,3218
20,200,4659,2912,3218
20,201,4659,2912,3218
20,202,4659,2912,3218
20,203,4659,2912,3218
20,204,4659,2912,3218
20,205,4659,2912,3218
20,206,4659,2912,3218
20,207,4659,2912,3218
20,208,4659,2912,3218
20,209,4659,2912,3218
20,210,4659,2912,3218
20,211,4659,2912,3218
20,212,4659,2912,3218
20,213,4659,2912,3218
20,214,4659,2912,3218
20,215,4659,2912,3218
20,216,4659,2912,3218
20,217,4659,2912,3218
20,218,4659,2912,3218
20,219,4659,2912,3218
20,220,4659,2912,3218
20,221,4659,2912,3218
20,222,4659,2912,3218
20,223,4659,2912,3218
20,224,4659,2912,3218
20,225,4659,2912,3218
20,226,4659,2912,3218
20,227,4659,2912,3218
20,228,4659,2912,3218
20,229,4659,2912,3218
20,230,4659,2912,3218
20,231,4659,2912,3218
20,232,4659,2912,3218
20,233,4659,2912,3218
20,234,4659,2912,3218
20,235,4659,2912,3218
20,236,4659,2912,3218
20,237,4659,2912,3218
20,238,4659,2912,3218
20,239,4659,2912,3218
20,240,4659,2912,3218
20,241,4659,2912,3218
20,242,4659,2912,3218
20,243,4659,2912,3218
20,244,4659,2912,3218
20,245,4659,2912,3218
20,246,4659,2912,3218
20,247,4659,2912,3218
20,248,4659,2912,3218
20,249,4659,2912,3218
20,250,4659,2912,3218
20,251,4659,2912,3218
20,252,4659,2912,3218
20,253,4659,2912,3218
20,254,4659,2912,3218
20,255,4659,2912,3218
20,256,4659,2912,3218
20,257,4659,2912,3218
20,258,4659,2912,3218
20,259,4659,2912,3218
20,260,4659,2912,3218
20,261,4659,2912,3218
20,262,4659,2912,3218
20,263,4659,2912,3218
20,264,4659,2912,3218
20,265,4659,2912,3218
20,266,4659,2912,3218
20,267,4659,2912,3218
20,268,4659,2912,3218
20,269,4659,2912,3218
20,270,4659,2912,3218
20,271,4659,2912,3218
20,272,4659,2912,3218
20,273,4659,2912,3218
20,274,4659,2912,3218
20,275,4659,2912,3218
20,276,4659,2912,3218
20,277,4659,2912,3218
20,278,4659,2912,3218
20,279,4659,2912,3218
20,280,4659,2912,3218
20,281,4659,2912,3218
20,282,4659,2912,3218
20,283,4659,2912,3218
20,284,4659,2912,3218
20,285,4659,2912,3218
20,286,4659,2912,3218
20,287,4659,2912,3218
20,288,4659,2912,3218
20,289,4659,2912,3218
20,290,4659,2912,3218
20,291,4659,2912,3218
20,292,4659,2912,3218
20,293,4659,2912,3218
20,294,4659,2912,3218
20,295,4659,2912,3218
20,296,4659,2912,3218
20,297,4659,2912,3218
20,298,4659,2912,3218
20,299,4659,2912,3218
20,300,4659,2912,3218
20,301,4659,2912,3218
20,302,4659,2912,3218
20,303,4659,2912,3218
20,304,4659,2912,3218
20,305,4659,2912,3218
20,306,4659,2912,3218
20,307,4659,2912,3218
20,308,4659,2912,3218
20,309,4659,2912,3218
20,310,4659,2912,3218
20,311,4659,2912,3218
20,312,4659,2912,3218
20,313,4659,2912,3218
20,314,4659,2912,3218
20,315,4659,2912,3218
20,316,4659,2912,3218
20,317,4659,2912,3218
20,318,4659,2912,3218
20,319,4659,2912,3218
20,320,4659,2912,3218
20,321,4659,2912,3218
20,322,4659,2912,3218
20,323,4659,2912,3218
20,324,4659,2912,3218
20,325,4659,2912,3218
20,326,4659,2912,3218
20,327,4659,2912,3218
20,328,4659,2912,3218
20,329,4659,2912,3218
20,330,4659,2912,3218
20,331,4659,2912,3218
20,332,4659,2912,3218
20,333,4659,2912,3218
20,334,4659,2912,3218
20,335,4659,2912,3218
20,336,4659,2912,3218
20,337,4659,2912,3218
20,338,4659,2912,3218
20,339,4659,2912,3218
20,340,4659,2912,3218
20,341,4659,2912,3218
20,342,4659,2912,3218
20,343,4659,2912,3218
20,344,4659,2912,3218
20,345,4659,2912,3218
20,346,4659,2912,3218
20,347,4659,2912,3218
20,348,4659,2912,3218
20,349,4659,2912,3218
20,350,4659,2912,3218
20,351,4659,2912,3218
20,352,4659,2912,3218
20,353,4659,2912,3218
20,354,4659,2912,3218
20,355,4659,2912,3218
20,356,4659,2912,3218
20,357,4659,2912,3218
20,358,4659,2912,3218
20,359,4659,2912,3218
20,360,4659,2912,3218
20,361,4659,2912,3218
20,362,4659,2912,3218
20,363,4659,2912,3218
20,364,4659,2912,3218
20,365,4659,2912,3218
20,366,4659,2912,3218
20,367,4659,2912,3218
20,368,4659,2912,3218
20,369,4659,2912,3218
20,370,4659,2912,3218
20,371,4659,2912,3218
20,372,4659,2912,3218
20,373,4659,2912,3218
20,374,4659,2912,3218
20,375,4659,2912,3218
20,376,4659,2912,3218
20,377,4659,2912,3218
20,378,4659,2912,3218
20,379,4659,2912,3218
20,380,4659,2912,3218
20,381,4659,2912,3218
20,382,4659,2912,3218
20,383,4659,2912,3218
20,384,4659,2912,3218
20,385,4659,2912,3218
20,386,4659,2912,3218
20,387,4659,2912,3218
20,388,4659,2912,3218
20,389,4659,2912,3218
20,390,4659,2912,3218
20,391,4659,2912,3218
20,392,4659,2912,3218
20,393,4659,2912,3218
20,394,4659,2912,3218
20,395,4659,2912,3218
20,396,4659,2912,3218
20,397,4659,2912,3218
20,398,4659,2912,3218
20,399,4659,2912,3218
20,400,4659,2912,3218
20,401,4659,2912,3218
20,402,4659,2912,3218
20,403,4659,2912,3218
20,404,4659,2912,3218
20,405,4659,2912,3218
20,406,4659,2912,3218
20,407,4659,2912,3218
20,408,4659,2912,3218
20,409,4659,2912,3218
20,410,4659,2912,3218
20,411,4659,2912,3218
20,412,4659,2912,3218
20,413,4659,2912,3218
20,414,4659,2912,3218
20,415,4659,2912,3218
20,416,4659,2912,3218
20,417,4659,2912,3218
20,418,4659,2912,3218
20,419,4659,2912,3218
20,420,4659,2912,3218
20,421,4659,2912,3218
20,422,4659,2912,3218
20,423,4659,2912,3218
20,424,4659,2912,3218
20,425,4659,2912,3218
20,426,4659,2912,3218
20,427,4659,2912,3218
20,428,4659,2912,3218
20,429,4659,2912,3218
20,430,4659,2912,3218
20,431,4659,2912,3218
20,432,4659,2912,3218
20,433,4659,2912,3218
20,434,4659,2912,3218
20,435,4659,2912,3218
20,436,4659,2912,3218
20,437,4659,2912,3218
20,438,4659,2912,3218
20,439,4659,2912,3218
20,440,4659,2912,3218
20,441,4659,2912,3218
20,442,4659,2912,3218
20,443,4659,2912,3218
20,444,4659,2912,3218
20,445,4659,2912,3218
20,446,4659,2912,3218
20,447,4659,2912,3218
20,448,4659,2912,3218
20,449,4659,2912,3218
20,450,4659,2912,3218
20,451,4659,2912,3218
20,452,4659,2912,3218
20,453,4659,2912,3218
20,454,4659,2912,3218
20,455,4659,2912,3218
20,456,4659,2912,3218
20,457,4659,2912,3218
20,458,4659,2912,3218
20,459,4659,2912,3218
20,460,4659,2912,3218
20,461,4659,2912,3218
20,462,4659,2912,3218
20,463,4659,2912,3218
20,464,4659,2912,3218
20,465,4659,2912,3218
20,466,4659,2912,3218
20,467,4659,2912,3218
20,468,4659,2912,3218
20,469,4659,2912,3218
20,470,4659,2912,3218
20,471,4659,2912,3218
20,472,4659,2912,3218
20,473,4659,2912,3218
20,474,4659,2912,3218
20,475,4659,2912,3218
20,476,4659,2912,3218
20,477,4659,2912,3218
20,478,4659,2912,3218
20,479,4659,2912,3218
20,480,4659,2912,3218
20,481,4659,2912,3218
20,482,4659,2912,3218
20,483,4659,2912,3218
20,484,4659,2912,3218
20,485,4659,2912,3218
20,486,4659,2912,3218
20,487,4659,2912,3218
20,488,4659,2912,3218
20,489,4659,2912,3218
20,490,4659,2912,3218
20,491,4659,2912,3218
20,492,4659,2912,3218
20,493,4659,2912,3218
20,494,4659,2912,3218
20,495,4659,2912,3218
20,496,4659,2912,3218
20,497,4659,2912,3218
20,498,4659,2912,3218
20,499,4659,2912,3218
20,500,4659,2912,3218
20,501,4659,2912,3218
20,502,4659,2912,3218
20,503,4659,2912,3218
20,504,4659,2912,3218
20,505,4659,2912,3218
20,506,4659,2912,3218
20,507,4659,2912,3218
20,508,4659,2912,3218
20,509,4659,2912,3218
20,510,4659,2912,3218
20,511,4659,2912,3218
20,512,4659,2912,3218
20,513,4659,2912,3218
20,514,4659,2912,3218
20,515,4659,2912,3218
20,516,4659,2912,3218
20,517,4659,2912,3218
20,518,4659,2912,3218
20,519,4659,2912,3218
20,520,4659,2912,3218
20,521,4659,2912,3218
20,522,4659,2912,3218
20,523,4659,2912,3218
20,524,4659,2912,3218
20,525,4659,2912,3218
20,526,4659,2912,3218
20,527,4659,2912,3218
20,528,4659,2912,3218
20,529,4659,2912,3218
20,530,4659,2912,3218
20,531,4659,2912,3218
20,532,4659,2912,3218
20,533,4659,2912,3218
20,534,4659,2912,3218
20,535,4659,2912,3218
20,536,4659,2912,3218
20,537,4659,2912,3218
20,538,4659,2912,3218
20,539,4659,2912,3218
20,540,4659,2912,3218
20,541,4659,2912,3218
20,542,4659,2912,3218
20,543,4659,2912,3218
20,544,4659,2912,3218
20,545,4659,2912,3218
20,546,4659,2912,3218
20,547,4659,2912,3218
20,548,4659,2912,3218
20,549,4659,2912,3218
20,550,4659,2912,3218
20,551,4659,2912,3218
20,552,4659,2912,3218
20,553,4659,2912,3218
20,554,4659,2912,3218
20,555,4659,2912,3218
20,556,4659,2912,3218
20,557,4659,2912,3218
20,558,4659,2912,3218
20,559,4659,2912,3218
20,560,4659,2912,3218
20,561,4659,2912,3218
20,562,4659,2912,3218
20,563,4659,2912,3218
20,564,4659,2912,3218
20,565,4659,2912,3218
20,566,4659,2912,3218
20,567,4659,2912,3218
20,568,4659,2912,3218
20,569,4659,2912,3218
20,570,4659,2912,3218
21,1,2987,42,1670
21,2,2987,42,1670
21,3,2987,42,1670
21,4,2987,42,1670
21,5,2987,42,1670
21,6,2987,42,1670
21,7,2987,42,1670
21,8,2987,42,1670
21,9,2987,42,1670
21,10,2987,42,1670
21,11,2987,42,1670
21,12,2987,42,1670
21,13,2987,42,1670
21,14,2987,42,1670
21,15,2987,42,1670
21,16,2987,42,1670
21,17,2987,42,1670
21,18,2987,42,1670
21,19,2987,42,1670
21,20,2987,42,1670
21,21,2987,42,1670
21,22,2987,42,1670
21,23,2987,42,1670
21,24,2987,42,1670
21,25,2987,42,1670
21,26,2987,42,1670
21,27,2987,42,1670
21,28,2987,42,1670
21,29,2987,42,1670
21,30,2987,42,1670
21,31,2987,42,1670
21,32,2987,42,1670
21,33,2987,42,1670
21,34,2987,42,1670
21,35,2987,42,1670
21,36,2987,42,1670
21,37,2987,42,1670
21,38,2987,42,1670
21,39,2987,42,1670
21,40,2987,42,1670
21,41,2987,42,1670
21,42,2987,42,1670
21,43,2987,42,1670
21,44,2987,42,1670
21,45,2987,42,1670
21,46,2987,42,1670
21,47,2987,42,1670
21,48,2987,42,1670
21,49,2987,42,1670
21,50,2987,42,1670
21,51,2987,42,1670
21,52,2987,42,1670
21,53,2987,42,1670
21,54,2987,42,1670
21,55,2987,42,1670
21,56,2987,42,1670
21,57,2987,42,1670
21,58,2987,42,1670
21,59,2987,42,1670
21,60,2987,42,1670
21,61,2987,42,1670
21,62,2987,42,1670
21,63,2987,42,1670
21,64,2987,42,1670
21,65,2987,42,1670
21,66,2987,42,1670
21,67,2987,42,1670
21,68,2987,42,1670
21,69,2987,42,1670
21,70,2987,42,1670
21,71,2987,42,1670
21,72,2987,42,1670
21,73,2987,42,1670
21,74,2987,42,1670
21,75,2987,42,1670
21,76,2987,42,1670
21,77,2987,42,1670
21,78,2987,42,1670
21,79,2987,42,1670
21,80,2987,42,1670
21,81,2987,42,1670
21,82,2987,42,1670
21,83,2987,42,1670
21,84,2987,42,1670
21,85,2987,42,1670
21,86,2987,42,1670
21,87,2987,42,1670
21,88,2987,42,1670
21,89,2987,42,1670
21,90,2987,42,1670
21,91,2987,42,1670
21,92,2987,42,1670
21,93,2987,42,1670
21,94,2987,42,1670
21,95,2987,42,1670
21,96,2987,42,1670
21,97,2987,42,1670
21,98,2987,42,1670
21,99,2987,42,1670
21,100,2987,42,1670
21,101,2987,42,1670
21,102,2987,42,1670
21,103,2987,42,1670
21,104,2987,42,1670
21,105,2987,42,1670
21,106,2987,42,1670
21,107,2987,42,1670
21,108,2987,42,1670
21,109,2987,42,1670
21,110,2987,42,1670
21,111,2987,42,1670
21,112,2987,42,1670
21,113,2987,42,1670
21,114,2987,42,1670
21,115,2987,42,1670
21,116,2987,42,1670
21,117,2987,42,1670
21,118,2987,42,1670
21,119,2987,42,1670
21,120,2987,42,1670
21,121,2987,42,1670
21,122,2987,42,1670
21,123,2987,42,1670
21,124,2987,42,1670
21,125,2987,42,1670
21,126,2987,42,1670
21,127,2987,42,1670
21,128,2987,42,1670
21,129,2987,42,1670
21,130,2987,42,1670
21,131,2987,42,1670
21,132,2987,42,1670
21,133,2987,42,1670
21,134,2987,42,1670
21,135,2987,42,1670
21,136,2987,42,1670
21,137,2987,42,1670
21,138,2987,42,1670
21,139,2987,42,1670
21,140,2987,42,1670
21,141,2987,42,1670
21,142,2987,42,1670
21,143,2987,42,1670
21,144,2987,42,1670
21,145,2987,42,1670
21,146,2987,42,1670
21,147,2987,42,1670
21,148,2987,42,1670
21,149,2987,42,1670
21,150,2987,42,1670
21,151,2987,42,1670
21,152,2987,42,1670
21,153,2987,42,1670
21,154,2987,42,1670
21,155,2987,42,1670
21,156,2987,42,1670
21,157,2987,42,1670
21,158,2987,42,1670
21,159,2987,42,1670
21,160,2987,42,1670
21,161,2987,42,1670
21,162,2987,42,1670
21,163,2987,42,1670
21,164,2987,42,1670
21,165,2987,42,1670
21,166,2987,42,1670
21,167,2987,42,1670
21,168,2987,42,1670
21,169,2987,42,1670
21,170,2987,42,1670
21,171,2987,42,1670
21,172,2987,42,1670
21,173,2987,42,1670
21,174,2987,42,1670
21,175,2987,42,1670
21,176,2987,42,1670
21,177,2987,42,1670
21,178,2987,42,1670
21,179,2987,42,1670
21,180,2987,42,1670
21,181,2987,42,1670
21,182,2987,42,1670
21,183,2987,42,1670
21,184,2987,42,1670
21,185,2987,42,1670
21,186,2987,42,1670
21,187,2987,42,1670
21,188,2987,42,1670
21,189,2987,42,1670
21,190,2987,42,1670
21,191,2987,42,1670
21,192,2987,42,1670
21,193,2987,42,1670
21,194,2987,42,1670
21,195,2987,42,1670
21,196,2987,42,1670
21,197,2987,42,1670
21,198,2987,42,1670
21,199,2987,42,1670
21,200,2987,42,1670
21,201,2987,42,1670
21,202,2987,42,1670
21,203,2987,42,1670
21,204,2987,42,1670
21,205,2987,42,1670
21,206,2987,42,1670
21,207,2987,42,1670
21,208,2987,42,1670
21,209,2987,42,1670
21,210,2987,42,1670
21,211,2987,42,1670
21,212,2987,42,1670
21,213,2987,42,1670
21,214,2987,42,1670
21,215,2987,42,1670
21,216,2987,42,1670
21,217,2987,42,1670
22,1,1077,0,1610
22,2,1077,0,1610
22,3,1077,0,1610
22,4,1077,0,1610
22,5,1077,0,1610
22,6,1077,0,1610
22,7,1077,0,1610
22,8,1077,0,1610
22,9,1077,0,1610
22,10,1077,0,1610
22,11,1077,0,1610
22,12,1077,0,1610
22,13,1077,0,1610
22,14,1077,0,1610
22,15,1077,0,1610
22,16,1077,0,1610
22,17,1077,0,1610
22,18,1077,0,1610
23,1,1834,2466,1114
23,2,1834,2466,1114
23,3,1834,2466,1114
23,4,1834,2466,1114
23,5,1834,2466,1114
23,6,1834,2466,1114
23,7,1834,2466,1114
23,8,1834,2466,1114
23,9,1834,2466,1114
23,10,1834,2466,1114
24,1,1196,0,983
24,2,1196,0,983
24,3,1196,0,983
24,4,1196,0,983
24,5,1196,0,983
24,6,1196,0,983
24,7,1196,0,983
24,8,1196,0,983
24,9,1196,0,983
24,10,1196,0,983
24,11,1196,0,983
24,12,1196,0,983
24,13,1196,0,983
24,14,1196,0,983
24,15,1196,0,983
24,16,1196,0,983
24,17,1196,0,983
24,18,1196,0,983
24,19,1196,0,983
24,20,1196,0,983
24,21,1196,0,983
24,22,1196,0,983
24,23,1196,0,983
24,24,1196,0,983
24,25,1196,0,983
24,26,1196,0,983
24,27,1196,0,983
24,28,1196,0,983
24,29,1196,0,983
24,30,1196,0,983
24,31,1196,0,983
24,32,1196,0,983
24,33,1196,0,983
24,34,1196,0,983
24,35,1196,0,983
24,36,1196,0,983
24,37,1196,0,983
24,38,1196,0,983
24,39,1196,0,983
24,40,1196,0,983
24,41,1196,0,983
24,42,1196,0,983
24,43,1196,0,983
24,44,1196,0,983
24,45,1196,0,983
24,46,1196,0,983
24,47,1196,0,983
24,48,1196,0,983
24,49,1196,0,983
24,50,1196,0,983
24,51,1196,0,983
24,52,1196,0,983
24,53,1196,0,983
24,54,1196,0,983
24,55,1196,0,983
24,56,1196,0,983
24,57,1196,0,983
24,58,1196,0,983
25,1,3176,2310,2357
25,2,3176,2310,2357
25,3,3176,2310,2357
25,4,3176,2310,2357
25,5,3176,2310,2357
25,6,3176,2310,2357
25,7,3176,2310,2357
25,8,3176,2310,2357
25,9,3176,2310,2357
25,10,3176,2310,2357
25,11,3176,2310,2357
25,12,3176,2310,2357
25,13,3176,2310,2357
25,14,3176,2310,2357
25,15,3176,2310,2357
25,16,3176,2310,2357
25,17,3176,2310,2357
25,18,3176,2310,2357
26,1,2649,2420,2244
26,2,2649,2420,2244
26,3,2649,2420,2244
26,4,2649,2420,2244
26,5,2649,2420,2244
26,6,2649,2420,2244
26,7,2649,2420,2244
26,8,2649,2420,2244
26,9,2649,2420,2244
26,10,2649,2420,2244
26,11,2649,2420,2244
26,12,2649,2420,2244
26,13,2649,2420,2244
26,14,2649,2420,2244
26,15,2649,2420,2244
26,16,2649,2420,2244
26,17,2649,2420,2244
26,18,2649,2420,2244
26,19,2649,2420,2244
26,20,2649,2420,2244
26,21,2649,2420,2244
26,22,2649,2420,2244
26,23,2649,2420,2244
26,24,2649,2420,2244
26,25,2649,2420,2244
26,26,2649,2420,2244
26,27,2649,2420,2244
26,28,2649,2420,2244
26,29,2649,2420,2244
26,30,2649,2420,2244
26,31,2649,2420,2244
26,32,2649,2420,2244
26,33,2649,2420,2244
26,34,2649,2420,2244
26,35,2649,2420,2244
26,36,2649,2420,2244
26,37,2649,2420,2244
26,38,2649,2420,2244
26,39,2649,2420,2244
26,40,2649,2420,2244
26,41,2649,2420,2244
26,42,2649,2420,2244
26,43,2649,2420,2244
26,44,2649,2420,2244
26,45,2649,2420,2244
26,46,2649,2420,2244
26,47,2649,2420,2244
26,48,2649,2420,2244
26,49,2649,2420,2244
26,50,2649,2420,2244
26,51,2649,2420,2244
26,52,2649,2420,2244
26,53,2649,2420,2244
26,54,2649,2420,2244
26,55,2649,2420,2244
26,56,2649,2420,2244
26,57,2649,2420,2244
26,58,2649,2420,2244
26,59,2649,2420,2244
26,60,2649,2420,2244
26,61,2649,2420,2244
26,62,2649,2420,2244
26,63,2649,2420,2244
26,64,2649,2420,2244
26,65,2649,2420,2244
26,66,2649,2420,2244
26,67,2649,2420,2244
26,68,2649,2420,2244
26,69,2649,2420,2244
26,70,2649,2420,2244
26,71,2649,2420,2244
26,72,2649,2420,2244
27,1,1570,1737,1668
27,2,1570,1737,1668
27,3,1570,1737,1668
27,4,1570,1737,1668
27,5,1570,1737,1668
27,6,1570,1737,1668
27,7,1570,1737,1668
27,8,1570,1737,1668
27,9,1570,1737,1668
27,10,1570,1737,1668
27,11,1570,1737,1668
27,12,1570,1737,1668
27,13,1570,1737,1668
27,14,1570,1737,1668
27,15,1570,1737,1668
27,16,1570,1737,1668
27,17,1570,1737,1668
28,1,3213,4440,3230
28,2,3213,4440,3230
28,3,3213,4440,3230
28,4,3213,4440,3230
28,5,3213,4440,3230
28,6,3213,4440,3230
28,7,3213,4440,3230
28,8,3213,4440,3230
28,9,3213,4440,3230
28,10,3213,4440,3230
28,11,3213,4440,3230
28,12,3213,4440,3230
28,13,3213,4440,3230
28,14,3213,4440,3230
28,15,3213,4440,3230
28,16,3213,4440,3230
28,17,3213,4440,3230
28,18,3213,4440,3230
28,19,3213,4440,3230
28,20,3213,4440,3230
28,21,3213,4440,3230
28,22,3213,4440,3230
28,23,3213,4440,3230
28,24,3213,4440,3230
28,25,3213,4440,3230
28,26,3213,4440,3230
28,27,3213,4440,3230
28,28,3213,4440,3230
28,29,3213,4440,3230
28,30,3213,4440,3230
28,31,3213,4440,3230
28,32,3213,4440,3230
28,33,3213,4440,3230
28,34,3213,4440,3230
28,35,3213,4440,3230
28,36,3213,4440,3230
28,37,3213,4440,3230
28,38,3213,4440,3230
28,39,3213,4440,3230
28,40,3213,4440,3230
28,41,3213,4440,3230
28,42,3213,4440,3230
28,43,3213,4440,3230
29,1,571,0,716
29,2,571,0,716
29,3,571,0,716
29,4,571,0,716
29,5,571,0,716
29,6,571,0,716
29,7,571,0,716
29,8,571,0,716
29,9,571,0,716
29,10,571,0,716
29,11,571,0,716
29,12,571,0,716
29,13,571,0,716
29,14,571,0,716
29,15,571,0,716
29,16,571,0,716
29,17,571,0,716
29,18,571,0,716
29,19,571,0,716
29,20,571,0,716
29,21,571,0,716
29,22,571,0,716
29,23,571,0,716
29,24,571,0,716
29,25,571,0,716
29,26,571,0,716
29,27,571,0,716
29,28,571,0,716
29,29,571,0,716
29,30,571,0,716
29,31,571,0,716
29,32,571,0,716
29,33,571,0,716
29,34,571,0,716
29,35,571,0,716
29,36,571,0,716
29,37,571,0,716
29,38,571,0,716
29,39,571,0,716
29,40,571,0,716
29,41,571,0,716
29,42,571,0,716
29,43,571,0,716
29,44,571,0,716
29,45,571,0,716
29,46,571,0,716
29,47,571,0,716
29,48,571,0,716
29,49,571,0,716
29,50,571,0,716
29,51,571,0,716
29,52,571,0,716
29,53,571,0,716
29,54,571,0,716
29,55,571,0,716
29,56,571,0,716
29,57,571,0,716
29,58,571,0,716
29,59,571,0,716
29,60,571,0,716
30,1,4306,10583,2985
30,2,4306,10583,2985
30,3,4306,10583,2985
30,4,4306,10583,2985
30,5,4306,10583,2985
30,6,4306,10583,2985
30,7,4306,10583,2985
30,8,4306,10583,2985
30,9,4306,10583,2985
30,10,4306,10583,2985
30,11,4306,10583,2985
30,12,4306,10583,2985
30,13,4306,10583,2985
30,14,4306,10583,2985
30,15,4306,10583,2985
30,16,4306,10583,2985
30,17,4306,10583,2985
30,18,4306,10583,2985
30,19,4306,10583,2985
30,20,4306,10583,2985
30,21,4306,10583,2985
30,22,4306,10583,2985
30,23,4306,10583,2985
30,24,4306,10583,2985
30,25,4306,10583,2985
30,26,4306,10583,2985
30,27,4306,10583,2985
30,28,4306,10583,2985
30,29,4306,10583,2985
30,30,4306,10583,2985
30,31,4306,10583,2985
30,32,4306,10583,2985
30,33,4306,10583,2985
30,34,4306,10583,2985
30,35,4306,10583,2985
30,36,4306,10583,2985
30,37,4306,10583,2985
30,38,4306,10583,2985
30,39,4306,10583,2985
30,40,4306,10583,2985
30,41,4306,10583,2985
30,42,4306,10583,2985
30,43,4306,10583,2985
30,44,4306,10583,2985
30,45,4306,10583,2985
30,46,4306,10583,2985
30,47,4306,10583,2985
30,48,4306,10583,2985
30,49,4306,10583,2985
30,50,4306,10583,2985
30,51,4306,10583,2985
30,52,4306,10583,2985
30,53,4306,10583,2985
30,54,4306,10583,2985
30,55,4306,10583,2985
30,56,4306,10583,2985
30,57,4306,10583,2985
30,58,4306,10583,2985
30,59,4306,10583,2985
30,60,4306,10583,2985
30,61,4306,10583,2985
30,62,4306,10583,2985
30,63,4306,10583,2985
30,64,4306,10583,2985
30,65,4306,10583,2985
30,66,4306,10583,2985
30,67,4306,10583,2985
30,68,4306,10583,2985
30,69,4306,10583,2985
30,70,4306,10583,2985
30,71,4306,10583,2985
30,72,4306,10583,2985
30,73,4306,10583,2985
30,74,4306,10583,2985
30,75,4306,10583,2985
30,76,4306,10583,2985
30,77,4306,10583,2985
30,78,4306,10583,2985
30,79,4306,10583,2985
30,80,4306,10583,2985
30,81,4306,10583,2985
30,82,4306,10583,2985
30,83,4306,10583,2985
30,84,4306,10583,2985
30,85,4306,10583,2985
30,86,4306,10583,2985
30,87,4306,10583,2985
30,88,4306,10583,2985
30,89,4306,10583,2985
30,90,4306,10583,2985
30,91,4306,10583,2985
30,92,4306,10583,2985
30,93,4306,10583,2985
30,94,4306,10583,2985
30,95,4306,10583,2985
30,96,4306,10583,2985
30,97,4306,10583,2985
30,98,4306,10583,2985
30,99,4306,10583,2985
30,100,4306,10583,2985
30,101,4306,10583,2985
30,102,4306,10583,2985
30,103,4306,10583,2985
30,104,4306,10583,2985
30,105,4306,10583,2985
30,106,"4,306",10583,2985
30,107,"4,306",10583,2985
30,108,"4,306",10583,2985
30,109,"4,306",10583,2985
30,110,"4,306",10583,2985
30,111,"4,306",10583,2985
30,112,4306,10583,2985
30,113,4306,10583,2985
30,114,4306,10583,2985
30,115,4306,10583,2985
30,116,4306,10583,2985
30,117,4306,10583,2985
30,118,4306,10583,2985
30,119,4306,10583,2985
30,120,4306,10583,2985
30,121,4306,10583,2985
30,122,4306,10583,2985
30,123,4306,10583,2985
30,124,4306,10583,2985
30,125,4306,10583,2985
30,126,4306,10583,2985
30,127,4306,10583,2985
30,128,4306,10583,2985
30,129,4306,10583,2985
30,130,4306,10583,2985
30,131,4306,10583,2985
30,132,4306,10583,2985
30,133,4306,10583,2985
30,134,4306,10583,2985
30,135,4306,10583,2985
30,136,4306,10583,2985
30,137,4306,10583,2985
30,138,4306,10583,2985
30,139,4306,10583,2985
30,140,4306,10583,2985
30,141,4306,10583,2985
30,142,4306,10583,2985
30,143,4306,10583,2985
30,144,4306,10583,2985
30,145,4306,10583,2985
30,146,4306,10583,2985
30,147,4306,10583,2985
30,148,4306,10583,2985
30,149,4306,10583,2985
30,150,4306,10583,2985
30,151,4306,10583,2985
30,152,4306,10583,2985
30,153,4306,10583,2985
30,154,4306,10583,2985
30,155,4306,10583,2985
30,156,4306,10583,2985
30,157,4306,10583,2985
30,158,4306,10583,2985
30,159,4306,10583,2985
30,160,4306,10583,2985
30,161,4306,10583,2985
30,162,4306,10583,2985
30,163,4306,10583,2985
30,164,4306,10583,2985
30,165,4306,10583,2985
30,166,4306,10583,2985
30,167,4306,10583,2985
30,168,4306,10583,2985
30,169,4306,10583,2985
30,170,4306,10583,2985
30,171,4306,10583,2985
30,172,4306,10583,2985
30,173,4306,10583,2985
30,174,4306,10583,2985
30,175,4306,10583,2985
30,176,4306,10583,2985
30,177,4306,10583,2985
30,178,4306,10583,2985
30,179,4306,10583,2985
30,180,4306,10583,2985
30,181,4306,10583,2985
30,182,4306,10583,2985
30,183,4306,10583,2985
30,184,4306,10583,2985
30,185,4306,10583,2985
30,186,4306,10583,2985
30,187,4306,10583,2985
30,188,4306,10583,2985
30,189,4306,10583,2985
30,190,4306,10583,2985
30,191,4306,10583,2985
30,192,4306,10583,2985
30,193,4306,10583,2985
30,194,4306,10583,2985
30,195,4306,10583,2985
30,196,4306,10583,2985
30,197,4306,10583,2985
30,198,4306,10583,2985
30,199,4306,10583,2985
30,200,4306,10583,2985
30,201,4306,10583,2985
30,202,4306,10583,2985
30,203,4306,10583,2985
30,204,4306,10583,2985
30,205,4306,10583,2985
30,206,4306,10583,2985
30,207,4306,10583,2985
30,208,4306,10583,2985
30,209,4306,10583,2985
30,210,4306,10583,2985
30,211,4306,10583,2985
30,212,4306,10583,2985
31,1,393,1408,905
31,2,393,1408,905
31,3,393,1408,905
31,4,393,1408,905
31,5,393,1408,905
31,6,393,1408,905
31,7,393,1408,905
31,8,393,1408,905
31,9,393,1408,905
31,10,393,1408,905
31,11,393,1408,905
31,12,393,1408,905
31,13,393,1408,905
31,14,393,1408,905
31,15,393,1408,905
31,16,393,1408,905
31,17,393,1408,905
31,18,393,1408,905
31,19,393,1408,905
31,20,393,1408,905
31,21,393,1408,905
31,22,393,1408,905
31,23,393,1408,905
31,24,393,1408,905
31,25,393,1408,905
31,26,393,1408,905
31,27,393,1408,905
31,28,393,1408,905
31,29,393,1408,905
31,30,393,1408,905
31,31,393,1408,905
31,32,393,1408,905
31,33,393,1408,905
31,34,393,1408,905
31,35,393,1408,905
31,36,393,1408,905
31,37,393,1408,905
31,38,393,1408,905
31,39,393,1408,905
31,40,393,1408,905
31,41,393,1408,905
31,42,393,1408,905
31,43,393,1408,905
31,44,393,1408,905
31,45,393,1408,905
31,46,393,1408,905
31,47,393,1408,905
31,48,393,1408,905
31,49,393,1408,905
31,50,393,1408,905
31,51,393,1408,905
31,52,393,1408,905
31,53,393,1408,905
31,54,393,1408,905
31,55,393,1408,905
31,56,393,1408,905
31,57,393,1408,905
31,58,393,1408,905
31,59,393,1408,905
31,60,393,1408,905
31,61,393,1408,905
31,62,393,1408,905
31,63,393,1408,905
31,64,393,1408,905
31,65,393,1408,905
31,66,393,1408,905
31,67,393,1408,905
31,68,393,1408,905
31,69,393,1408,905
31,70,393,1408,905
31,71,393,1408,905
31,72,393,1408,905
31,73,393,1408,905
31,74,393,1408,905
31,75,393,1408,905
31,76,393,1408,905
31,77,393,1408,905
31,78,393,1408,905
31,79,393,1408,905
31,80,393,1408,905
31,81,393,1408,905
31,82,393,1408,905
31,83,393,1408,905
31,84,393,1408,905
31,85,393,1408,905
31,86,393,1408,905
31,87,393,1408,905
31,88,393,1408,905
31,89,393,1408,905
31,90,393,1408,905
31,91,393,1408,905
31,92,393,1408,905
31,93,393,1408,905
31,94,393,1408,905
31,95,393,1408,905
31,96,393,1408,905
31,97,393,1408,905
31,98,393,1408,905
31,99,393,1408,905
31,100,393,1408,905
31,101,393,1408,905
31,102,393,1408,905
31,103,393,1408,905
31,104,393,1408,905
31,105,393,1408,905
31,106,393,1408,905
32,1,2054,0,1044
32,2,2054,0,1044
32,3,2054,0,1044
32,4,2054,0,1044
32,5,2054,0,1044
32,6,2054,0,1044
32,7,2054,0,1044
32,8,2054,0,1044
32,9,2054,0,1044
32,10,2054,0,1044
32,11,2054,0,1044
32,12,2054,0,1044
32,13,2054,0,1044
32,14,2054,0,1044
32,15,2054,0,1044
32,16,2054,0,1044
32,17,2054,0,1044
32,18,2054,0,1044
32,19,2054,0,1044
32,20,2054,0,1044
32,21,2054,0,1044
32,22,2054,0,1044
32,23,2054,0,1044
32,24,2054,0,1044
32,25,2054,0,1044
32,26,2054,0,1044
32,27,2054,0,1044
32,28,2054,0,1044
32,29,2054,0,1044
32,30,2054,0,1044
32,31,2054,0,1044
32,32,2054,0,1044
32,33,2054,0,1044
32,34,2054,0,1044
32,35,2054,0,1044
32,36,2054,0,1044
32,37,2054,0,1044
32,38,2054,0,1044
32,39,2054,0,1044
32,40,2054,0,1044
32,41,2054,0,1044
32,42,2054,0,1044
32,43,2054,0,1044
32,44,2054,0,1044
32,45,2054,0,1044
32,46,2054,0,1044
32,47,2054,0,1044
32,48,2054,0,1044
32,49,2054,0,1044
32,50,2054,0,1044
32,51,2054,0,1044
32,52,2054,0,1044
32,53,2054,0,1044
32,54,2054,0,1044
32,55,2054,0,1044
32,56,2054,0,1044
32,57,2054,0,1044
32,58,2054,0,1044