﻿num,desasgregado,dia,mes,year,entidad,municipio,mil_mu,mil_her,civ_det,civ_mu,civ_her,clave,clave_ent,clave_mun,cambio_mun,error
1,no,10,11,2007,Tamaulipas,Matamoros,0,0,0,0,2,28022,28,22,no,no
2,no,1,10,2008,Michoacán,Lázaro Cárdenas,0,2,0,0,0,16052,16,52,no,no
3,no,22,8,2009,Sinaloa,Badiraguato,1,0,0,0,0,25003,25,3,no,no
4,no,16,12,2009,Morelos,Cuernavaca,1,2,0,0,7,17007,17,7,no,no
5,no,5,7,2009,Chiapas,Suchiate,0,1,0,0,0,7087,7,87,no,no
6,no,17,8,2009,Tamaulipas,San Fernando,0,1,0,0,0,28035,28,35,no,no
7,no,3,9,2009,Tamaulipas,Reynosa,0,0,0,0,1,28032,28,32,no,no
8,no,22,11,2009,Veracruz,Matamoros,0,0,0,0,1,28022,28,22,no,sí
9,no,4,12,2009,Nuevo León,Juárez,0,2,0,0,8,19031,19,31,no,no
10,sí,2,2,2010,Tamaulipas,Sin registro,3,0,0,0,7,,,,no,sí
11,sí,2,2,2010,Tamaulipas,Sin registro,0,0,0,0,0,,,,no,sí
12,sí,2,2,2010,Tamaulipas,Sin registro,0,0,0,0,0,,,,no,sí
13,no,7,3,2010,Tamaulipas,Matamoros,1,2,0,0,0,28022,28,22,no,no
14,sí,5,3,2010,Tamaulipas,Sin registro,0,0,0,0,2,,,,no,sí
15,sí,5,3,2010,Tamaulipas,Sin registro,0,0,0,0,0,,,,no,sí
16,sí,7,3,2010,Nuevo León,Monterrey,0,0,0,0,8,19039,19,39,no,no
17,sí,7,3,2010,Nuevo León,Monterrey,0,0,0,0,0,19039,19,39,no,no
18,sí,7,3,2010,Nuevo León,Monterrey,0,0,0,0,0,19039,19,39,no,no
19,no,5,5,2010,Sonora,Hermosillo,0,0,0,0,1,26030,26,30,no,no
20,sí,20,5,2010,Tamaulipas,Matamoros,0,0,0,0,8,28022,28,22,no,no
21,sí,20,5,2010,Tamaulipas,Matamoros,0,0,0,0,0,28022,28,22,no,no
22,no,8,5,2010,Tamaulipas,Miguel Alemán,0,1,0,0,0,28025,28,25,no,no
23,sí,17,6,2010,Tamaulipas,Tampico,0,0,0,0,8,28038,28,38,no,no
24,sí,17,6,2010,Tamaulipas,Tampico,0,0,0,0,0,28038,28,38,no,no
25,sí,17,6,2010,Tamaulipas,Tampico,0,0,0,0,0,28038,28,38,no,no
26,no,16,6,2010,Colima,Manzanillo,0,3,0,0,8,6007,6,7,no,no
27,no,20,7,2010,Coahuila,Saltillo,0,0,0,0,1,5030,5,30,no,no
28,sí,21,7,2010,Tamaulipas,Matamoros,0,2,0,0,13,28022,28,22,no,no
29,sí,21,7,2010,Tamaulipas,Matamoros,0,0,0,0,0,28022,28,22,no,no
30,sí,21,7,2010,Tamaulipas,Matamoros,0,0,0,0,0,28022,28,22,no,no
31,sí,30,8,2010,Tamaulipas,Matamoros,1,0,0,0,10,28022,28,22,no,no
32,sí,30,8,2010,Tamaulipas,Matamoros,0,0,0,0,0,28022,28,22,no,no
33,sí,30,8,2010,Tamaulipas,Matamoros,0,0,0,0,0,28022,28,22,no,no
34,sí,12,8,2010,Nuevo León,Juárez,0,0,0,0,2,19031,19,31,no,no
35,sí,12,8,2010,Nuevo León,Juárez,0,0,0,0,0,19031,19,31,no,no
36,no,25,8,2010,Durango,Durango,0,0,0,0,4,10005,10,5,no,no
37,sí,9,9,2010,Tamaulipas,San Fernando,3,0,0,0,10,28035,28,35,no,no
38,sí,9,9,2010,Tamaulipas,San Fernando,0,0,0,0,0,28035,28,35,no,no
39,sí,9,9,2010,Tamaulipas,San Fernando,0,0,0,0,0,28035,28,35,no,no
40,no,27,9,2010,Michoacán,Coahuayana,1,1,0,0,5,16014,16,14,no,no
41,no,4,10,2010,Guerrero,Acapulco de Juárez,0,0,0,0,1,12001,12,1,no,no
42,no,8,10,2010,Tamaulipas,Ciudad Madero,0,1,0,0,0,28009,28,9,no,no
43,no,14,10,2010,Nuevo León,Santa Catarina,1,2,0,0,4,19048,19,48,no,no
44,no,5,10,2010,Tamaulipas,San Fernando,0,0,0,0,2,28035,28,35,no,no
45,no,17,10,2010,Tamaulipas,Matamoros,0,2,0,0,0,28022,28,22,no,no
46,sí,11,11,2010,Tamaulipas,Ciudad Madero,3,0,0,0,8,28009,28,9,no,no
47,sí,11,11,2010,Tamaulipas,Ciudad Madero,0,0,0,0,0,28009,28,9,no,no
48,no,15,11,2010,Jalisco,Puerto Vallarta,0,0,0,0,2,14067,14,67,no,no
49,no,9,12,2010,Sinaloa,Mazatlán,0,1,0,0,1,25012,25,12,no,no
50,no,3,11,2010,Nuevo León,Apodaca,0,1,0,0,0,19006,19,6,no,no
51,no,3,12,2010,Colima,Manzanillo,0,0,0,0,1,6007,6,7,no,no
52,sí,13,12,2010,Tamaulipas,Ciudad Madero,0,0,0,0,4,28009,28,9,no,no
53,sí,13,12,2010,Tamaulipas,Ciudad Madero,0,0,0,0,0,28009,28,9,no,no
54,sí,13,12,2010,Tamaulipas,Ciudad Madero,0,0,0,0,0,28009,28,9,no,no
55,sí,13,12,2010,Tamaulipas,Ciudad Madero,0,0,0,0,0,28009,28,9,no,no
56,no,2,1,2011,Sinaloa,Culiacán,0,0,0,0,2,25006,25,6,no,no
57,no,5,1,2011,Sonora,Puerto Peñasco,0,0,0,0,1,26048,26,48,no,no
58,sí,20,1,2011,Tamaulipas,Matamoros,0,0,0,0,3,28022,28,22,no,no
59,sí,20,1,2011,Tamaulipas,Matamoros,0,0,0,0,0,28022,28,22,no,no
60,sí,20,1,2011,Tamaulipas,Matamoros,0,0,0,0,0,28022,28,22,no,no
61,no,28,2,2011,Sinaloa,Angostura,0,2,0,0,0,25002,25,2,no,no
62,sí,2,2,2011,Nuevo León,Monterrey,0,0,0,0,9,19039,19,39,no,no
63,sí,2,2,2011,Nuevo León,Monterrey,0,0,0,0,0,19039,19,39,no,no
64,sí,2,2,2011,Nuevo León,Monterrey,0,0,0,0,0,19039,19,39,no,no
65,sí,10,2,2011,Tamaulipas,Ciudad Madero,0,0,0,0,2,28009,28,9,no,no
66,sí,10,2,2011,Tamaulipas,Ciudad Madero,0,0,0,0,0,28009,28,9,no,no
67,sí,3,3,2011,Tamaulipas,Victoria,0,0,0,0,18,28041,28,41,no,no
68,sí,3,3,2011,Tamaulipas,Victoria,0,0,0,0,0,28041,28,41,no,no
69,no,2,3,2011,Tamaulipas,Valle Hermoso,0,1,0,0,0,28040,28,40,no,no
70,no,4,4,2011,Nayarit,Tepic,0,0,0,0,1,18017,18,17,no,no
71,no,10,4,2011,Tamaulipas,Valle Hermoso,0,0,0,0,1,28040,28,40,no,no
72,no,20,4,2011,Veracruz,Veracruz,0,0,0,0,2,30193,30,193,no,no
73,sí,10,5,2011,Coahuila,Saltillo,0,0,0,0,3,5030,5,30,no,no
74,sí,10,5,2011,Coahuila,Saltillo,0,0,0,0,0,5030,5,30,no,no
75,no,22,5,2011,Durango,Durango,0,0,0,0,3,10005,10,5,no,no
76,sí,12,5,2011,Guerrero,Acapulco de Juárez,0,0,0,0,2,12001,12,1,no,no
77,sí,12,5,2011,Guerrero,Acapulco de Juárez,0,0,0,0,0,12001,12,1,no,no
78,sí,12,5,2011,Guerrero,Acapulco de Juárez,0,0,0,0,0,12001,12,1,no,no
79,no,8,5,2011,Tamaulipas,Guerrero,1,0,0,0,0,28014,28,14,no,no
80,no,7,5,2011,Tamaulipas,Valle Hermoso,0,0,0,0,17,28040,28,40,no,no
81,no,18,5,2011,Tamaulipas,Casas,0,3,0,0,0,28008,28,8,no,no
82,no,19,6,2011,Sinaloa,Ahome,1,0,0,0,0,25001,25,1,no,no
83,no,22,6,2011,Zacatecas,Villa de Cos,1,2,0,0,2,32051,32,51,no,no
84,no,1,7,2011,Zacatecas,Fresnillo,0,6,0,0,15,32010,32,10,no,no
85,no,8,7,2011,Veracruz,Veracruz,0,1,0,0,0,30193,30,193,no,no
86,no,7,7,2011,Nayarit,San Blas,0,0,0,0,4,18012,18,12,no,no
87,no,25,7,2011,Nuevo León,Monterrey,0,0,0,0,3,19039,19,39,no,no
88,no,17,7,2011,Guerrero,Petatlán,1,0,0,0,2,12048,12,48,no,no
89,no,14,8,2011,Veracruz,Veracruz,0,2,0,0,1,30193,30,193,no,no
90,no,22,8,2011,Tamaulipas,Nuevo Laredo,0,6,0,0,5,28027,28,27,no,no
91,no,13,9,2011,Nuevo León,Monterrey,0,0,0,0,1,19039,19,39,no,no
92,no,7,9,2011,Guerrero,Petatlán,1,0,0,0,0,12048,12,48,no,no
93,no,16,9,2011,Veracruz,Xalapa,1,0,0,0,7,30087,30,87,no,no
94,no,10,10,2011,Sinaloa,Mazatlán,0,0,0,0,2,25012,25,12,no,no
95,sí,13,10,2011,Tamaulipas,Matamoros,0,0,0,0,11,28022,28,22,no,no
96,sí,13,10,2011,Tamaulipas,Matamoros,0,0,0,0,0,28022,28,22,no,no
97,no,7,10,2011,Veracruz,Coatzacoalcos,0,0,0,0,5,30039,30,39,no,no
98,no,28,10,2011,Baja California Sur,Los Cabos,1,0,0,0,0,3008,3,8,no,no
99,no,14,11,2011,Sinaloa,Mazatlán,1,0,0,0,0,25012,25,12,no,no
100,no,18,11,2011,Veracruz,Tuxpan,2,0,0,0,0,30189,30,189,no,no
101,no,15,11,2011,Michoacán,Lázaro Cárdenas,0,0,0,0,1,16052,16,52,no,no
102,no,18,12,2011,Veracruz,Tuxpan,0,0,0,0,1,30189,30,189,no,no
103,no,12,2,2012,Veracruz,Veracruz,0,0,0,1,0,30193,30,193,no,no
104,sí,1,2,2012,Nuevo León,Monterrey,0,0,0,9,0,19039,19,39,no,no
105,sí,1,2,2012,Nuevo León,Monterrey,0,0,0,0,0,19039,19,39,no,no
106,sí,1,2,2012,Nuevo León,Monterrey,0,0,0,0,0,19039,19,39,no,no
107,sí,4,2,2012,Tamaulipas,Reynosa,0,0,0,2,0,28032,28,32,no,no
108,sí,4,2,2012,Tamaulipas,Reynosa,0,0,0,0,0,28032,28,32,no,no
109,no,15,3,2012,Jalisco,Puerto Vallarta,0,0,0,1,0,14067,14,67,no,no
110,no,20,3,2012,Veracruz,Veracruz,0,0,0,1,0,30193,30,193,no,no
111,no,10,4,2012,Tamaulipas,Soto la Marina,0,1,0,0,0,28037,28,37,no,no
112,no,10,5,2012,Jalisco,Puerto Vallarta,0,0,0,1,0,14067,14,67,no,no
113,no,15,5,2012,Michoacán,Lázaro Cárdenas,0,0,0,0,0,16052,16,52,no,no
114,no,22,5,2012,Veracruz,Veracruz,0,0,0,1,0,30193,30,193,no,no
115,no,17,5,2012,Tamaulipas,Angostura,0,1,0,0,1,25002,25,2,no,no
116,no,18,7,2012,Coahuila,Saltillo,0,0,0,1,0,5030,5,30,no,no
117,no,20,7,2012,Tamaulipas,Reynosa,0,0,0,1,0,28032,28,32,no,no
118,sí,24,7,2012,Veracruz,La Antigua,0,1,0,7,0,30016,30,16,no,no
119,sí,24,7,2012,Veracruz,La Antigua,0,0,0,0,0,30016,30,16,no,no
120,sí,13,8,2012,Veracruz,Veracruz,0,0,0,5,0,30193,30,193,no,no
121,sí,13,8,2012,Veracruz,Veracruz,0,0,0,0,0,30193,30,193,no,no
122,no,10,8,2012,Zacatecas,Zacatecas,0,0,0,0,1,32056,32,56,no,no
123,no,27,9,2012,Zacatecas,Valparaíso,1,0,0,3,0,32049,32,49,no,no
124,no,2,10,2012,Sonora,Hermosillo,1,0,0,0,0,26030,26,30,no,no
125,sí,10,10,2012,Coahuila,Saltillo,0,0,0,5,0,5030,5,30,no,no
126,sí,10,10,2012,Coahuila,Saltillo,0,0,0,0,0,5030,5,30,no,no
127,no,8,10,2012,Zacatecas,Valparaíso,0,0,0,0,0,32049,32,49,no,no
128,no,30,10,2012,Tamaulipas,Nuevo Laredo,4,0,0,0,2,28027,28,27,no,no
129,no,11,11,2012,Jalisco,Puerto Vallarta,0,0,0,0,0,14067,14,67,no,no
130,no,14,12,2012,Tamaulipas,Reynosa,0,0,1,3,0,28032,28,32,no,no
131,no,5,12,2012,Guerrero,Acapulco de Juárez,1,0,0,0,0,12001,12,1,no,no
132,no,3,12,2012,Veracruz,Veracruz,0,0,2,1,0,30193,30,193,no,no
133,no,13,12,2012,Zacatecas,Zacatecas,0,0,3,3,0,32056,32,56,no,no
134,sí,8,12,2012,Coahuila,Nava,0,0,0,5,0,5022,5,22,no,no
135,sí,8,12,2012,Coahuila,Nava,0,0,0,0,0,5022,5,22,no,no
136,sí,8,12,2012,Coahuila,Nava,0,0,0,0,0,5022,5,22,no,no
137,sí,8,12,2012,Coahuila,Nava,0,0,0,0,0,5022,5,22,no,no
138,sí,8,12,2012,Coahuila,Nava,0,0,0,0,0,5022,5,22,no,no
139,sí,8,12,2012,Coahuila,Nava,0,0,0,0,0,5022,5,22,no,no
140,no,11,1,2013,Colima,Manzanillo,1,0,0,0,0,6007,6,7,no,no
141,no,25,2,2013,Nuevo León,Mina,0,0,0,0,0,19037,19,37,no,no
142,no,14,3,2013,Veracruz,Veracruz,0,0,0,3,0,30193,30,193,no,no
143,no,18,3,2013,Tamaulipas,San Fernando,0,0,4,2,0,28035,28,35,no,no
144,no,25,3,2013,Zacatecas,Valparaíso,0,0,4,1,0,32049,32,49,no,no
145,no,27,3,2013,Veracruz,Tres Valles,0,0,2,0,0,30207,30,207,no,no
146,no,30,3,2013,Veracruz,Tres Valles,0,1,0,0,0,30207,30,207,no,no
147,no,12,4,2013,Michoacán,Coahuayana,0,0,0,0,0,16014,16,14,no,no
148,no,13,4,2013,Sinaloa,Culiacán,0,0,0,0,0,25006,25,6,no,no
149,no,16,4,2013,Coahuila,Saltillo,0,0,0,0,0,5030,5,30,no,no
150,no,10,5,2013,Jalisco,Zapopan,0,0,0,1,0,14120,14,120,no,no
151,no,12,5,2013,Zacatecas,Fresnillo,0,0,0,7,0,32010,32,10,no,no
152,no,8,6,2013,Guerrero,Acapulco de Juárez,0,0,0,0,0,12001,12,1,no,no
153,no,8,6,2013,Zacatecas,Fresnillo,0,0,2,0,0,32010,32,10,no,no
154,no,20,6,2013,Coahuila,Sabinas,0,1,0,4,0,5028,5,28,no,no
155,no,6,7,2013,Guerrero,Arcelia,0,0,0,1,0,12007,12,7,sí,no
156,no,28,7,2013,Michoacán,Churintzio,2,0,0,0,0,16028,16,28,no,no
157,no,29,7,2013,Campeche,Champotón,0,0,5,2,0,4004,4,4,no,no
158,no,11,8,2013,Coahuila,Matamoros,0,0,0,0,0,5017,5,17,no,no
159,no,16,8,2013,Tamaulipas,Aldama,0,0,1,0,0,28002,28,2,sí,no
160,no,11,9,2013,Coahuila,Frontera,0,0,0,0,0,5010,5,10,no,no
161,no,29,9,2013,Estado de México,Luvianos,1,1,0,0,0,15123,15,123,no,no
162,no,3,10,2013,Coahuila,Hidalgo,0,1,0,0,0,5013,5,13,sí,no
163,no,4,10,2013,Tamaulipas,Reynosa,0,0,1,2,0,28032,28,32,no,no
164,no,8,10,2013,Estado de México,Otzoloapan,0,0,2,1,0,15066,15,66,no,no
165,no,9,10,2013,Tamaulipas,Matamoros,0,0,0,6,0,28022,28,22,no,no
166,no,13,10,2013,Nayarit,Santa María del Oro,0,0,10,1,0,18014,18,14,no,no
167,no,24,10,2013,Veracruz,Tres Valles,0,0,1,2,0,30207,30,207,no,no
168,no,3,11,2013,Tamaulipas,Matamoros,0,0,0,0,0,28022,28,22,no,no
169,no,14,11,2013,Tamaulipas,Matamoros,0,0,0,0,0,28022,28,22,no,no
170,no,15,11,2013,Tamaulipas,Matamoros,0,0,0,2,0,28022,28,22,no,no
171,no,16,11,2013,Tamaulipas,Matamoros,0,0,0,0,0,28022,28,22,no,no
172,no,17,11,2013,Coahuila,Monclova,0,0,0,4,0,5018,5,18,no,no
173,no,17,11,2013,Tamaulipas,Nuevo Laredo,0,0,0,8,0,28027,28,27,no,no
174,no,17,11,2013,Tamaulipas,Nuevo Laredo,0,0,0,4,0,28027,28,27,no,no
175,no,22,11,2013,Veracruz,Pánuco,0,0,0,2,0,30123,30,123,no,no
176,no,9,12,2013,Guerrero,Zihuatanejo de Azueta,0,0,0,4,0,12038,12,38,sí,no
177,no,10,12,2013,Baja California,Mexicali,0,0,2,0,0,2002,2,2,sí,no
178,no,22,12,2013,Tamaulipas,Río Bravo,0,0,0,1,0,28033,28,33,sí,no
179,no,24,12,2013,Veracruz,Boca del Río,0,0,0,5,0,30028,30,28,no,no
180,no,6,1,2014,Nuevo León,Apodaca,0,0,0,1,0,19006,19,6,no,no
181,no,26,1,2014,Tamaulipas,Méndez,0,0,0,3,0,28023,28,23,sí,no
182,no,8,2,2014,Guerrero,Zihuatanejo de Azueta,0,0,1,1,0,12038,12,38,sí,no
183,no,8,2,2014,Tamaulipas,El Mante,0,0,0,5,0,28021,28,21,sí,no
184,no,9,3,2014,Tamaulipas,San Fernando,0,2,0,2,0,28035,28,35,no,no
185,no,9,3,2014,Michoacán,Tumbiscatío,0,0,0,0,0,16096,16,96,no,no
186,no,10,3,2014,Estado de México,Luvianos,0,0,0,0,0,15123,15,123,no,no
187,no,20,3,2014,Michoacán,Arteaga,0,0,0,0,0,16010,16,10,sí,no
188,no,30,3,2014,Tamaulipas,Matamoros,0,0,0,0,0,28022,28,22,no,no
189,no,15,4,2014,Michoacán,Jiquilpan,0,0,0,2,0,16045,16,45,no,no
190,no,17,4,2014,Tamaulipas,Valle Hermoso,1,0,0,3,0,28040,28,40,no,no
191,no,20,4,2014,Estado de México,Luvianos,0,0,2,2,0,15123,15,123,sí,no
192,no,22,4,2014,Tamaulipas,San Fernando,0,0,0,0,0,28035,28,35,sí,no
193,no,24,4,2014,Tamaulipas,El Mante,0,0,1,5,0,28021,28,21,sí,no
194,no,25,4,2014,Guerrero,Apaxtla,1,0,6,0,0,12006,12,6,sí,no
195,no,5,5,2014,Tamaulipas,Matamoros,0,0,0,2,0,28022,28,22,no,no
196,no,15,5,2014,Tamaulipas,Matamoros,0,0,0,4,0,28022,28,22,no,no
197,no,16,5,2014,Tamaulipas,Soto la Marina,0,0,0,0,0,28037,28,37,sí,no
198,no,16,5,2014,Michoacán,Arteaga,0,0,0,3,0,16010,16,10,sí,no
199,no,18,5,2014,Tamaulipas,Camargo,0,0,3,5,0,28007,28,7,no,no
200,no,20,5,2014,Coahuila,Matamoros,0,0,0,6,0,5017,5,17,sí,no
201,no,23,5,2014,Tamaulipas,Reynosa,0,0,0,2,0,28032,28,32,sí,no
202,no,11,6,2014,Tamaulipas,Matamoros,0,0,0,2,0,28022,28,22,no,no
203,no,18,6,2014,Tamaulipas,Matamoros,0,0,0,0,0,28022,28,22,no,no
204,no,29,6,2014,Guerrero,Acapulco de Juárez,0,0,0,2,0,12001,12,1,sí,no
205,no,6,7,2014,Veracruz,Acayucan,0,0,0,0,1,30003,30,3,no,no
206,no,7,7,2014,Michoacán,Arteaga,0,0,0,5,0,16010,16,10,no,no
207,no,10,7,2014,Tamaulipas,Nuevo Laredo,0,0,0,1,0,28027,28,27,no,no
208,no,10,7,2014,Sinaloa,Guasave,0,1,0,4,0,25011,25,11,no,no
209,no,14,7,2014,Tamaulipas,Abasolo,0,0,0,0,0,28001,28,1,no,no
210,no,28,7,2014,Tamaulipas,Reynosa,2,0,0,0,0,28032,28,32,sí,no
211,no,19,9,2014,Tamaulipas,Reynosa,0,0,0,0,0,28032,28,32,sí,no
212,no,21,9,2014,Michoacán,Lázaro Cárdenas,0,0,0,0,0,16052,16,52,no,no
213,no,25,9,2014,Tamaulipas,Reynosa,0,0,0,0,0,28032,28,32,sí,no
214,no,29,10,2014,Tamaulipas,Tampico,0,0,1,0,0,28038,28,38,no,no
215,no,30,10,2014,Sinaloa,Ahome,0,0,1,3,0,25001,25,1,sí,no
216,no,5,11,2014,Estado de México,Luvianos,0,0,4,2,0,15123,15,123,no,no
217,no,10,11,2014,Tamaulipas,Altamira,1,0,0,0,0,28003,28,3,no,no
218,no,12,11,2014,Tamaulipas,Matamoros,0,0,5,0,0,28022,28,22,no,no
219,no,3,12,2014,Guerrero,Acapulco de Juárez,0,0,1,0,0,12001,12,1,sí,no
220,no,11,12,2014,Tamaulipas,Matamoros,0,0,0,0,0,28022,28,22,no,no
221,no,22,12,2014,Tamaulipas,Matamoros,0,0,2,0,0,28022,28,22,no,no
222,no,1,2,2015,Tamaulipas,Valle Hermoso,0,1,0,2,0,28040,28,40,no,no
223,no,15,2,2015,Tamaulipas,Matamoros,0,0,0,3,0,28022,28,22,no,no
224,no,27,2,2015,Veracruz,Cosoleacaque,0,0,0,2,0,30048,30,48,no,no
225,no,5,3,2015,Sinaloa,Ahome,0,0,2,0,0,25001,25,1,sí,no
226,no,6,3,2015,Tamaulipas,Matamoros,0,0,1,0,6,28022,28,22,no,no
227,no,6,3,2015,Tamaulipas,Nuevo Laredo,0,0,0,0,0,28027,28,27,no,no
228,no,11,3,2015,Baja California Sur,La Paz,0,0,2,0,0,3003,3,3,no,no
229,no,11,3,2015,Tamaulipas,Nuevo Laredo,0,0,0,2,0,28027,28,27,no,no
230,no,12,3,2015,Tamaulipas,Reynosa,0,0,0,0,0,28032,28,32,sí,no
231,no,17,3,2015,Coahuila,Monclova,0,1,0,4,0,5018,5,18,no,no
232,no,31,3,2015,Tamaulipas,Reynosa,0,0,0,4,0,28032,28,32,no,no
233,no,8,4,2015,Sonora,Huatabampo,0,0,0,1,0,26033,26,33,sí,no
234,no,12,4,2015,Sinaloa,Angostura,0,0,0,0,0,25002,25,2,sí,no
235,no,18,4,2015,Guerrero,Zihuatanejo de Azueta,0,0,0,0,0,12038,12,38,sí,no
236,no,21,4,2015,Sinaloa,Culiacán,0,0,0,0,0,25006,25,6,no,no
237,no,23,4,2015,Veracruz,Ozuluama de Mascareñas,0,0,0,3,0,30121,30,121,sí,no
238,no,1,5,2015,Sinaloa,Guasave,0,0,0,0,0,25011,25,11,no,no
239,no,20,5,2015,Sinaloa,Ahome,0,0,0,2,0,25001,25,1,sí,no
240,no,30,5,2015,Sinaloa,Culiacán,1,0,0,1,0,25006,25,6,no,no
241,no,11,6,2015,Sonora,Guaymas,0,0,1,0,0,26029,26,29,no,sí
242,no,14,6,2015,Jalisco,Tomatlán,0,0,0,0,0,14100,14,100,no,sí
243,no,24,6,2015,Sinaloa,Ahome,0,0,0,5,0,25001,25,1,sí,sí
244,no,5,7,2015,Tamaulipas,Nuevo Laredo,0,0,0,2,0,28027,28,27,no,no
245,no,14,7,2015,Tamaulipas,Reynosa,0,0,0,0,0,28032,28,32,sí,no
246,no,17,7,2015,Sinaloa,Salvador Alvarado,0,0,0,0,0,25015,25,15,sí,sí
247,no,18,8,2015,Estado de México,Ixtapaluca,1,2,0,0,0,15039,15,39,no,no
248,no,19,8,2015,Tamaulipas,Nuevo Laredo,0,0,0,3,0,28027,28,27,no,no
249,no,8,9,2015,Veracruz,Martínez de la Torre,0,0,0,1,0,30102,30,102,no,no
250,no,16,10,2015,Tamaulipas,Matamoros,0,0,0,2,0,28022,28,22,no,no
251,no,7,11,2015,Sinaloa,Culiacán,0,0,0,5,0,25006,25,6,no,no
252,no,9,11,2015,Sinaloa,Ahome,0,0,0,2,0,25001,25,1,sí,no
253,no,13,22,2015,Tamaulipas,Reynosa,0,0,0,0,0,28032,28,32,sí,no
254,no,7,12,2015,Sinaloa,Culiacán,0,0,0,3,0,25006,25,6,no,no
255,no,18,12,2015,Tamaulipas,Matamoros,0,0,0,1,0,28022,28,22,no,no
256,no,25,12,2015,Sinaloa,Culiacán,0,0,0,1,0,25006,25,6,no,no
257,no,28,12,2015,Sinaloa,Angostura,2,0,0,2,0,25002,25,2,no,no
258,no,30,12,2015,Sinaloa,Ahome,0,0,0,0,0,25001,25,1,sí,no
259,no,6,1,2016,Tamaulipas,El Mante,0,0,0,0,0,28021,28,21,sí,no
260,no,8,1,2016,Sinaloa,Ahome,0,1,8,5,0,25001,25,1,sí,no
261,no,16,1,2016,Tamaulipas,Reynosa,0,0,4,0,0,28032,28,32,sí,no
262,no,26,1,2016,Sinaloa,Ahome,0,0,2,0,0,25001,25,1,no,no
263,no,5,2,2016,Tamaulipas,San Fernando,0,0,1,0,0,28035,28,35,no,no
264,no,14,2,2016,Sinaloa,Navolato,0,0,0,0,0,25018,25,18,no,no
265,no,17,2,2016,Tamaulipas,Valle Hermoso,0,0,2,0,0,28040,28,40,no,no
266,no,22,2,2016,Tamaulipas,Reynosa,0,0,0,1,0,28032,28,32,no,no
267,no,2,3,2016,Sinaloa,Guasave,0,0,0,0,0,25011,25,11,no,no
268,no,13,3,2016,Tamaulipas,Reynosa,0,0,0,5,0,28032,28,32,sí,no
269,no,15,3,2016,Nayarit,San Blas,0,0,0,0,0,18012,18,12,no,no
270,no,19,3,2016,Tamaulipas,Matamoros,0,0,0,0,0,28022,28,22,no,no
271,no,21,3,2016,Michoacán,Lázaro Cárdenas,0,0,0,2,0,16052,16,52,no,no
272,no,22,3,2016,Sinaloa,Guasave,0,0,3,0,0,25011,25,11,no,no
273,no,8,4,2016,Guerrero,Zihuatanejo de Azueta,0,0,0,0,0,12038,12,38,sí,no
274,no,14,4,2016,Guerrero,Zihuatanejo de Azueta,0,0,4,0,0,12038,12,38,sí,no
275,no,25,4,2016,Tamaulipas,Reynosa,0,0,0,8,0,28032,28,32,sí,no
276,no,30,4,2016,Tamaulipas,Matamoros,0,0,0,1,0,28022,28,22,no,no
277,no,2,5,2016,Tamaulipas,Matamoros,0,0,0,0,0,28022,28,22,no,no
278,no,6,5,2016,Tamaulipas,Reynosa,0,0,0,1,0,28032,28,32,sí,no
279,no,9,5,2016,Guerrero,Acapulco de Juárez,0,0,0,2,0,12001,12,1,sí,no
280,no,14,5,2016,Tamaulipas,Tampico,1,0,0,3,0,28038,28,38,no,no
281,no,22,6,2016,Tamaulipas,Matamoros,0,0,0,0,0,28022,28,22,no,no
282,no,21,7,2016,Sinaloa,Badiraguato,0,1,0,0,0,25003,25,3,no,no
283,no,23,7,2016,Estado de México,Ixtapaluca,0,2,9,3,0,15039,15,39,no,no
284,no,1,8,2016,Tamaulipas,Nuevo Laredo,0,2,0,0,0,28027,28,27,no,no
285,no,10,8,2016,Puebla,San Gregorio Atzompa,0,0,0,5,0,21125,21,125,no,no
286,no,21,8,2016,Michoacán,Lázaro Cárdenas,0,0,0,0,0,16052,16,52,no,no
287,no,11,9,2016,Tamaulipas,Nuevo Laredo,0,0,0,2,0,28027,28,27,no,no
288,no,16,9,2016,Sinaloa,Rosario,0,1,0,0,0,25014,25,14,sí,no
289,no,2,10,2016,Veracruz,Minatitlán,0,0,6,1,0,30108,30,108,no,no
290,no,9,10,2016,Tamaulipas,Victoria,0,0,0,2,0,28041,28,41,sí,no
291,no,27,10,2016,Tamaulipas,Gustavo Díaz Ordaz,0,0,0,1,0,28015,28,15,sí,no
292,no,28,10,2016,Tamaulipas,Reynosa,0,0,0,7,0,28032,28,32,sí,no
293,no,5,11,2016,Baja California Sur,La Paz,0,0,2,3,0,3003,3,3,no,no
294,no,10,11,2016,Tamaulipas,Reynosa,0,0,0,0,2,28032,28,32,sí,no
295,no,15,11,2016,Tamaulipas,Reynosa,0,0,0,4,0,28032,28,32,sí,no
296,no,20,11,2016,Tamaulipas,Reynosa,0,0,0,0,0,28032,28,32,sí,no
297,no,1,12,2016,Guerrero,Acapulco de Juárez,0,0,0,1,0,12001,12,1,sí,no
298,no,5,12,2016,Sinaloa,Mazatlán,0,0,2,2,0,25012,25,12,no,no
299,no,7,12,2016,Tamaulipas,Río Bravo,0,0,0,1,0,28033,28,33,no,no
300,no,11,12,2016,Sinaloa,Badiraguato,0,1,2,0,0,25003,25,3,no,no
301,no,14,1,2017,Baja California Sur,Los Cabos,0,1,0,0,0,3008,3,8,sí,no
302,no,15,1,2017,Oaxaca,Salina Cruz,0,0,0,0,0,20079,20,79,no,no
303,no,7,2,2017,Sinaloa,Culiacán,1,0,0,5,0,25006,25,6,no,no
304,no,7,2,2017,Guerrero,Acapulco de Juárez,0,0,0,0,1,12001,12,1,sí,no
305,no,9,2,2017,Nayarit,Tepic,0,1,0,12,0,18017,18,17,no,no
306,no,15,2,2017,Tamaulipas,Reynosa,0,0,0,2,0,28032,28,32,sí,no
307,no,17,2,2017,Tamaulipas,Reynosa,0,0,0,2,0,28032,28,32,sí,no
308,no,17,2,2017,Tamaulipas,Reynosa,0,0,0,4,0,28032,28,32,sí,no
309,no,21,2,2017,Tamaulipas,Reynosa,0,0,0,3,0,28032,28,32,sí,no
310,no,23,2,2017,Tamaulipas,Reynosa,0,0,0,2,0,28032,28,32,sí,no
311,no,28,2,2017,Veracruz,Coatzacoalcos,0,0,0,2,0,30039,30,39,no,no
312,no,20,3,2017,Tamaulipas,Reynosa,0,0,0,3,0,28032,28,32,sí,no
313,no,24,3,2017,Tamaulipas,Reynosa,0,0,1,0,0,28032,28,32,sí,no
314,no,31,3,2017,Veracruz,Coatzacoalcos,0,0,3,0,0,30039,30,39,no,no
315,no,4,4,2017,Tamaulipas,Reynosa,0,0,0,5,0,28032,28,32,sí,no
316,no,8,4,2017,Tamaulipas,Reynosa,0,2,0,0,0,28032,28,32,sí,no
317,no,12,4,2017,Tamaulipas,Río Bravo,0,0,0,1,0,28033,28,33,no,no
318,no,12,4,2017,Tamaulipas,Río Bravo,0,0,0,3,0,28033,28,33,no,no
319,no,14,4,2017,Sinaloa,Culiacán,0,0,0,1,0,25006,25,6,no,no
320,no,14,4,2017,Tamaulipas,Río Bravo,0,0,0,2,0,28033,28,33,no,no
321,no,22,4,2017,Tamaulipas,Reynosa,0,0,0,1,0,28032,28,32,sí,no
322,no,22,4,2017,Tamaulipas,Victoria,0,0,0,1,0,28041,28,41,sí,no
323,no,25,4,2017,Nayarit,Tepic,0,0,0,3,0,18017,18,17,no,no
324,no,29,4,2017,Guerrero,Arcelia,0,0,0,1,0,12007,12,7,sí,no
325,no,1,5,2017,Baja California Sur,Los Cabos,1,0,0,7,0,3008,3,8,sí,no
326,no,3,5,2017,Tamaulipas,Reynosa,0,0,0,0,0,28032,28,32,sí,no
327,no,15,5,2017,Sinaloa,Culiacán,0,0,0,1,0,25006,25,6,no,no
328,no,29,5,2017,Tamaulipas,Matamoros,0,0,0,0,0,28022,28,22,no,no
329,no,2,6,2017,Tamaulipas,Reynosa,0,0,0,0,0,28032,28,32,sí,no
330,no,19,6,2017,Sinaloa,Culiacán,0,0,0,3,0,25006,25,6,no,no
331,no,30,6,2017,Puebla,San Gregorio Atzompa,0,0,3,0,0,21125,21,125,no,no
332,no,3,7,2017,Tamaulipas,Reynosa,1,2,0,0,0,28032,28,32,sí,no
333,no,13,7,2017,Sinaloa,Ahome,0,0,0,0,1,"25001	",25,1,sí,no
334,no,21,7,2017,Puebla,Puebla,1,3,0,0,0,21114,21,114,no,no
335,no,22,7,2017,Tamaulipas,Reynosa,1,0,0,0,1,28032,28,32,sí,no
336,no,24,7,2017,Puebla,Esperanza,0,0,0,1,0,21063,21,63,no,no
337,no,1,8,2017,Tamaulipas,Reynosa,0,0,3,0,0,28032,28,32,sí,no
338,no,1,8,2017,Estado de México,Tejupilco,0,0,0,3,0,15082,15,82,no,no
339,no,20,8,2017,Ciudad de México,Tláhuac,0,2,0,1,0,9011,9,11,no,no
340,no,14,8,2017,Tamaulipas,Reynosa,0,0,2,1,0,28032,28,32,sí,no
341,no,20,8,2017,Tamaulipas,Reynosa,0,1,0,0,0,28032,28,32,sí,no
342,no,26,8,2017,Nuevo León,Santiago,0,1,0,0,0,19049,19,49,no,no
343,no,7,9,2017,Puebla,Tecamachalco,0,0,0,3,0,21154,21,154,no,no
344,no,7,9,2017,Tamaulipas,Victoria,0,0,0,5,0,28041,28,41,sí,no
345,no,9,9,2017,Tamaulipas,Valle Hermoso,0,1,0,3,0,28040,28,40,no,no
346,no,9,9,2017,Sinaloa,Culiacán,0,0,1,0,0,25006,25,6,no,no
347,no,11,9,2017,Sinaloa,Culiacán,0,1,0,2,0,25006,25,6,no,no
348,no,13,9,2017,Tamaulipas,Matamoros,0,0,0,0,0,28022,28,22,no,no
349,no,15,9,2017,Tamaulipas,Miguel Alemán,0,0,0,0,0,28025,28,25,sí,no
350,no,28,9,2017,Puebla,Tecamachalco,0,1,0,1,0,21154,21,154,no,no
351,no,29,9,2017,Tamaulipas,Matamoros,0,0,1,0,0,28022,28,22,no,no
352,no,3,10,2017,Nayarit,San Blas,1,0,1,0,0,18012,18,12,no,no
353,no,16,10,2017,Tamaulipas,Matamoros,0,0,0,3,0,28022,28,22,no,no
354,no,17,10,2017,Puebla,Puebla,0,0,0,1,0,21114,21,114,no,no
355,no,18,10,2017,Tamaulipas,Matamoros,0,0,0,0,0,28022,28,22,no,no
356,no,21,10,2017,Tabasco,Centla,0,0,0,5,0,27003,27,3,sí,no
357,no,19,11,2017,Tamaulipas,Matamoros,0,0,0,1,0,28022,28,22,no,no
358,no,1,12,2017,Tamaulipas,Reynosa,0,0,0,2,0,28032,28,32,sí,no
359,no,3,12,2017,Durango,Tamazula,0,0,0,2,0,10034,10,34,sí,no
360,no,4,12,2017,Sinaloa,Culiacán,0,0,0,3,0,25006,25,6,no,no
361,no,4,12,2017,Jalisco,Tonalá,1,0,0,2,0,14101,14,101,no,no
362,no,5,12,2017,Chiapas,Tapachula,0,0,0,0,2,7089,7,89,sí,no
363,no,20,12,2017,Nayarit,Tepic,0,0,0,1,0,18017,18,17,no,no
364,no,21,12,2017,Jalisco,La Huerta,1,0,0,0,0,14043,14,43,sí,no
365,no,24,12,2017,Jalisco,La Huerta,0,0,0,1,0,14043,14,43,sí,no
366,no,29,12,2017,Jalisco,Guadalajara,0,1,0,0,0,14039,14,39,no,no
367,no,3,1,2018,Tamaulipas,Reynosa,0,0,0,1,0,28032,28,32,sí,no
368,no,6,1,2018,Baja California Sur,Los Cabos,0,0,0,3,0,3008,3,8,sí,no
369,no,13,1,2018,Tamaulipas,Matamoros,0,0,0,2,0,28022,28,22,no,no
370,no,15,1,2018,Jalisco,Acatic,0,0,0,4,0,14001,14,1,no,no
371,no,16,1,2018,Veracruz,Acayucan,0,0,0,4,0,30003,30,3,no,no
372,no,22,1,2018,Tamaulipas,Reynosa,0,0,0,2,0,28032,28,32,sí,no
373,no,27,1,2018,Tamaulipas,Reynosa,0,0,0,4,0,28032,28,32,sí,no
374,no,31,1,2018,Sinaloa,Culiacán,0,0,2,4,0,25006,25,6,no,no
375,no,1,2,2018,Ciudad de México,Xochimilco,0,0,0,1,0,9013,9,13,no,no
376,no,9,2,2018,Tamaulipas,Reynosa,0,0,5,0,0,28032,28,32,sí,no
377,no,20,2,2018,Puebla,Puebla,0,1,0,2,0,21114,21,114,no,no
378,no,6,3,2018,Jalisco,Puerto Vallarta,0,7,0,0,0,14067,14,67,no,no
379,no,8,3,2018,Tamaulipas,Nuevo Laredo,0,0,0,1,0,28027,28,27,no,no
380,no,16,3,2018,Jalisco,Zapopan,0,0,0,3,0,14120,14,120,sí,no
381,no,24,3,2018,Tamaulipas,Nuevo Laredo,1,12,0,0,0,28027,28,27,no,no
382,no,11,4,2018,Tamaulipas,Reynosa,0,0,0,1,0,28032,28,32,no,no
383,no,11,4,2018,Tamaulipas,Reynosa,0,0,0,1,0,28032,28,32,no,no
384,no,17,4,2018,Colima,Manzanillo,0,0,0,4,0,6007,6,7,no,no
385,no,25,4,2018,Tamaulipas,Mier,0,0,0,3,0,28024,28,24,sí,no
386,no,12,5,2018,Tamaulipas,Reynosa,0,0,0,3,0,28032,28,32,sí,no
387,no,12,5,2018,Tamaulipas,Reynosa,0,1,0,0,0,28032,28,32,sí,no
388,no,13,5,2018,Tamaulipas,Reynosa,0,0,0,0,0,28032,28,32,sí,no
389,no,18,5,2018,Veracruz,Veracruz,0,1,0,0,0,30193,30,193,no,no
390,no,28,5,2018,Sonora,Hermosillo,0,0,0,0,0,26030,26,30,no,no
391,no,27,7,2018,Ciudad de México,Xochimilco,0,0,3,0,0,9013,9,13,no,no
392,no,16,8,2018,Michoacán,Apatzingán,0,0,0,4,0,16006,16,6,no,no
393,no,20,8,2018,Tamaulipas,Reynosa,0,3,0,0,0,28032,28,32,sí,no
394,no,24,8,2018,Oaxaca,Santiago Niltepec,0,0,0,0,1,20066,20,66,no,no
395,no,3,9,2018,Michoacán,Lázaro Cárdenas,0,0,0,1,0,16052,16,52,no,no
396,no,5,9,2018,Guerrero,Acapulco de Juárez,0,0,0,0,0,12001,12,1,sí,no
397,no,3,10,2018,Veracruz,Veracruz,0,0,0,0,0,30193,30,193,no,no
398,no,21,11,2018,Jalisco,Tomatlán,0,0,0,1,0,14100,14,100,no,no
399,no,13,12,2018,Coahuila,Hidalgo,1,3,0,2,0,5013,5,13,sí,no